<svg width="21" height="16" viewBox="0 0 21 16" fill="none" xmlns="http://www.w3.org/2000/svg">
<path d="M17.3706 0.907407H3.24962C2.44846 0.86557 1.661 1.13679 1.03906 1.66873L1.83928 2.21187L7.91389 6.34343C7.97324 6.36519 8.02751 6.40001 8.07305 6.44556L10.2836 7.95428L18.7766 2.21651L19.5812 1.66873C18.9499 1.15519 18.169 0.886227 17.3706 0.907407Z" fill="#054542"/>
<path d="M1.22946 2.89431L0.482294 2.38367C0.163366 2.96835 -0.0014309 3.63172 0.00481392 4.30554L0.000392808 11.682C-0.0108258 12.4686 0.218519 13.2382 0.654717 13.8778L1.28252 13.1954L7.06975 6.88196L1.22946 2.89431Z" fill="#054542"/>
<path d="M18.7259 13.822L12.8237 7.39722L10.569 8.92914L10.4938 8.96628H10.4584C10.4218 8.97116 10.3846 8.97116 10.3479 8.96628C10.3112 8.97116 10.2741 8.97116 10.2374 8.96628H10.202L10.0959 8.92914L7.85883 7.4065L1.9257 13.8406L1.28906 14.5323C1.87298 14.9266 2.55831 15.1227 3.25204 15.094H17.3996C18.0906 15.0986 18.768 14.8922 19.3493 14.4998L18.7259 13.822Z" fill="#054542"/>
<path d="M20.6415 11.682V4.31946C20.6612 3.64286 20.5005 2.97398 20.1773 2.38831L19.4257 2.89431L13.5898 6.86339L19.3727 13.1814L20.0049 13.8731C20.4467 13.2392 20.6711 12.4669 20.6415 11.682Z" fill="#054542"/>
</svg>
