﻿id;localisation;titre;idTerritoire;nomTerritoire;idsConstatsThemes;tagsProfilsScoreEleve;tagsProfilsScoreMoyen;tagsProfilsScoreFaible;bonusScore;tagsSujets;description;informationSource;intituleLienExterne;urlLienExterne;idImage;COLONNES SUIVANTES => INFO, pas utilisées lors de l'import du csv dans l'app;taux_adequation_brut;profil;profil_autonomie;Catégorie;Densité;Profil territoire;Particularités;Région;Département;Remarques
I-001;Communauté urbaine du Grand Poitiers (86);Agir pour la sobriété foncière dans une aire urbaine dynamique;E-200069854;Communauté urbaine du Grand Poitiers;terres-agricoles;PAYS, REGION, DEPARTEMENT, INTERCO_URBAINE, INTERCO_INTERMEDIAIRE, COMMUNE_URBAINE;COMMUNE_INTERMEDIAIRE, NON_SPECIALISE;INTERCO_TOUS, COMMUNE_TOUS, AGRICULTURE_TOUS;9;Sobriété foncière;Ce territoire fait partie du programme territoires pilotes de sobriété foncière. La collectivité a mis en place plusieurs actions pour faire face à des besoins en logements croissants tout en maîtrisant l’artificialisation.;Article publié sur le site urbanisme-puca.gouv.fr  (Plan Urbanisme Construction Architecture), consulté en octobre 2024;En savoir plus sur cette initiative;https://www.urbanisme-puca.gouv.fr/poitiers-grand-poitiers-communaute-urbaine-gpcu-a2766.html;img0001;;110.51000000000001;DEFAUT;TERRES_SUFFISANTES;EPCI;Intermédiaire;Polyculture-polyélevage;;Nouvelle-Aquitaine;Vienne;
I-002;Pays de Dreux (28);Préserver le foncier agricole tout en revitalisant le territoire;E-200040277;Communauté d'agglomération Agglo du Pays de Dreux;terres-agricoles;INTERCO_INTERMEDIAIRE;INTERCO_TOUS, COMMUNE_TOUS, GRANDES_CULTURES;AGRICULTURE_TOUS;;Sobriété foncière;Ce territoire fait partie du programme territoires pilotes de sobriété foncière. Trois sites démonstrateurs ont été choisis avec comme objectif de concilier sobriété foncière et revitalisation du territoire.;;En savoir plus sur cette initiative;https://www.urbanisme-puca.gouv.fr/dreux-agglomeration-du-pays-de-dreux-centre-val-de-a2713.html;img0002;;169.53999999999999;GRANDES_CULTURES;TERRES_SUFFISANTES;EPCI;Intermédiaire;Grandes cultures;;Centre-Val de Loire;Eure-et-Loir;
I-003;Agglomération Épernay, Coteaux et Plaine de Champagne (51);Mettre fin à l'étalement urbain et redonner vie aux centres-bourgs;E-200067684;Communauté d'agglomération Épernay, Coteaux et Plaine de Champagne;terres-agricoles;INTERCO_RURALE, COMMUNE_RURALE;INTERCO_INTERMEDIAIRE, COMMUNE_INTERMEDIAIRE, VITICULTURE;INTERCO_TOUS, COMMUNE_TOUS, AGRICULTURE_TOUS;;Sobriété foncière;Ce territoire fait partie du programme territoires pilotes de sobriété foncière. Dans cette agglomération où l'urbanisation de terres agricoles progressait malgré une démographie stable, la densification de l'existant est devenu une priorité pour l'action publique.;;En savoir plus sur cette initiative;https://www.urbanisme-puca.gouv.fr/tpsf-epernay-epernay-agglomeration-champagne-grand-a2789.html;img0003;;235.80000000000001;VITICULTURE;TERRES_SUFFISANTES;EPCI;Rural;Viticulture;;Grand Est;Marne;
I-004;Agglomération Maubeuge Val de Sambre (59);Agir pour la sobriété foncière à l'échelle d'une agglomération;E-200043396;Communauté d'agglomération Maubeuge Val de Sambre;terres-agricoles;INTERCO_INTERMEDIAIRE;INTERCO_TOUS, COMMUNE_TOUS, NON_SPECIALISE;AGRICULTURE_TOUS;;Sobriété foncière;Ce territoire fait partie du programme territoires pilotes de sobriété foncière. Confrontée à un fort étalement urbain et à la dévitalisation des centres villes, l'agglomération cherche à densifier le tissu urbain et à reconquérir les friches industrielles.;;En savoir plus sur cette initiative;https://www.urbanisme-puca.gouv.fr/maubeuge-agglomeration-maubeuge-val-de-sambre-a2823.html;img0004;;60.979999999999997;DEFAUT;TERRES_PRESQUE_SUFFISANTES;EPCI;Intermédiaire;Polyculture-polyélevage;;Hauts-de-France;Nord;
I-005;Agglomération Seine-Eure (27);Préserver le foncier agricole dans un territoire rural dymanique;E-200089456;Communauté d'agglomération Seine-Eure;terres-agricoles;INTERCO_INTERMEDIAIRE;INTERCO_TOUS, COMMUNE_TOUS, GRANDES_CULTURES;AGRICULTURE_TOUS;;Sobriété foncière;Ce territoire fait partie du programme territoires pilotes de sobriété foncière. Suite à un étalement urbain non maîtrisé, l'agglomération vise à retrouver une politique foncière plus sobre, tout en répondant aux besoins de développement démographique et économique.;;En savoir plus sur cette initiative;https://www.urbanisme-puca.gouv.fr/louviers-agglomeration-seine-eure-normandie-a2837.html;img0005;;58.020000000000003;GRANDES_CULTURES;TERRES_PRESQUE_SUFFISANTES;EPCI;Intermédiaire;Grandes cultures;;Normandie;Eure;
I-006;Sète Agglopôle Méditerranée (34);Préserver les espaces naturels et agricoles face à la pression foncière;E-200066355;Communauté d'agglomération Sète Agglopôle Méditerranée;terres-agricoles;PAYS, REGION, DEPARTEMENT, INTERCO_URBAINE, INTERCO_INTERMEDIAIRE, COMMUNE_URBAINE;COMMUNE_INTERMEDIAIRE, VITICULTURE;INTERCO_TOUS, COMMUNE_TOUS, AGRICULTURE_TOUS;;Sobriété foncière;Ce territoire fait partie du programme territoires pilotes de sobriété foncière. Dans ce territoire littoral à forte pression foncière et démographique, l'agglomération cherche à densifier les espaces urbains existants et à réhabiliter des friches industrielles.;;En savoir plus sur cette initiative;https://www.urbanisme-puca.gouv.fr/sete-sete-agglopole-mediterranee-sam-occitanie-a2776.html;img0006;;6.8600000000000003;URBAIN;TERRES_INSUFFISANTES;EPCI;Intermédiaire;Viticulture;Littoral;Occitanie;Hérault;
I-007;Velaux (13);Protéger les espaces agricoles de la pression foncière;C-13112;Velaux;terres-agricoles;COMMUNE_URBAINE, COMMUNE_INTERMEDIAIRE;INTERCO_URBAINE, INTERCO_INTERMEDIAIRE,  NON_SPECIALISE;INTERCO_TOUS, COMMUNE_TOUS, AGRICULTURE_TOUS;;Protection des terres;Dans un contexte périurbain avec forte pression foncière, un partenariat entre la commune, la SAFER, la Chambre d'Agriculture et le département a permis la mise en place d'un Périmètre de protection des espaces agricoles et naturels (PEAN).;;Lire le retour d'expérience sur le site de Terre de Liens;https://ressources.terredeliens.org/recolte/le-paen-de-velaux-13;img0007;;4.7999999999999998;URBAIN;TERRES_INSUFFISANTES;Commune;Urbain;Fruits, légumes, horticulture;;PACA;Bouches-du-Rhône;
I-008;Dracénie Provence Verdon Agglomération (83);Concilier préservation du foncier et enjeux démographiques;E-248300493;Communauté d'agglomération Dracénie Provence Verdon Agglomération;terres-agricoles;INTERCO_INTERMEDIAIRE;INTERCO_TOUS, COMMUNE_TOUS, VITICULTURE;AGRICULTURE_TOUS;;Sobriété foncière;Ce territoire fait partie du programme territoires pilotes de sobriété foncière. Malgré la pression démographique, l'agglomération cherche à mener une politique foncière équilibrée, préservant les terres agricoles en jouant sur la revitalisation et la reconfiguration des zones urbaines existantes.;;En savoir plus sur cette initiative;https://www.urbanisme-puca.gouv.fr/draguignan-dracenie-provence-verdon-agglomeration-a2844.html;img0008;;7.8799999999999999;URBAIN;TERRES_INSUFFISANTES;EPCI;Intermédiaire;Viticulture;;PACA;Var;
I-009;La Roquebrussanne (83);Protéger le patrimoine agricole local dans une commune rurale;C-83108;La Roquebrussanne;terres-agricoles;COMMUNE_INTERMEDIAIRE, COMMUNE_RURALE;INTERCO_INTERMEDIAIRE, INTERCO_RURALE, NON_SPECIALISE;INTERCO_TOUS, COMMUNE_TOUS, AGRICULTURE_TOUS;9;Protection des terres;Désireuse de sécuriser la vocation agricole des terres et de soutenir leur mise en valeur, la municipalité a mis en place une Zone Agricole Protégée (ZAP) sur 1 081 hectares, soit la quasi-totalité de la surface agricole communale. Les impacts sur la reconquète des friches et l'installation agricole ont été très positifs.;;Lire le retour d'expérience sur le site de Terre de Liens;https://ressources.terredeliens.org/recolte/pionniere-en-paca-un-bilan-de-la-zap-de-la-roquebrussane-83;img0009;;38.369999999999997;VITICULTURE;TERRES_INSUFFISANTES;Commune;Rural;Viticulture;;PACA;Var;
I-010;Département Loire Antlantique;Protéger les terres agricoles sur un territoire sensible;D-44;Loire-Atlantique;terres-agricoles;PAYS, REGION, DEPARTEMENT, INTERCO_TOUS;COMMUNE_TOUS, NON_SPECIALISE;AGRICULTURE_TOUS;;Protection des terres;Créé en 2013 et étendu en 2019, le Périmètre de protection des espaces agricoles et naturels (PEAN) des vallées de l’Erdre, du Gesvres, et du Cens, couvre plus de 20 000 hectares sur neuf communes.;;En savoir plus sur cette initiative;https://www.loire-atlantique.fr/44/environnement-energies/le-pean-des-vallees-de-l-erdre-du-gesvres-et-du-cens/c_1286570;img0010;;119.98999999999999;DEFAUT;TERRES_SUFFISANTES;EPCI;Intermédiaire;Polyculture-polyélevage;;Pays de la Loire;Loire-Atlantique;"Le porteur c'est le département
Le territoire concernée regroupe plusieurs communes => proche d'une échelle EPCI"
I-011;France;Mutualiser la logistique pour développer des filières bio et locales;P-FR;France;autonomie-alimentaire;PAYS, REGION, DEPARTEMENT;;;;Facilitation logistique;Le réseau « Manger Bio » propose dans la plupart des territoires des outils logistiques à destination des producteurs bio et des professionnels (restaurateurs, commerces alimentaires). Le référencement des produits, la gestion des commandes, la facturation, le stockage, la livraison, font partie des services pouvant être proposés.;;Consulter la carte des outils exisants sur le site du réseau Manger Bio;https://www.reseaumangerbio.fr/le-reseau/;img0011;;119.76000000000001;DEFAUT;TERRES_SUFFISANTES;Réseau national;;;;;;
I-012;Villefagnan (16);Organiser collectivement des filières pour des productions diversifiées;C-16409;Villefagnan;autonomie-alimentaire;INTERCO_RURALE, COMMUNE_RURALE;INTERCO_INTERMEDIAIRE, COMMUNE_INTERMEDIAIRE, NON_SPECIALISE;INTERCO_TOUS, COMMUNE_TOUS, AGRICULTURE_TOUS;;Filières de proximité, Agroécologie;Le GIE « La Ferme de Chassagne » regroupe des agriculteurs charentais certifiés AB autour de la transformation et de la commercialisation de leurs cultures : céréales et farines, huiles, légumes secs. Les producteurs peuvent ainsi diversifier leurs assolements tout en s'assurant des débouchés rémunérateurs.;;En savoir plus sur cette initiative;https://lesfermesdechassagne.fr/index.php;img0012;;659.59000000000003;DEFAUT;TERRES_SUFFISANTES;Réseau local;Rural;Polyculture-polyélevage;;Nouvelle-Aquitaine;Charente;"Initiative privée => pas de territoire porteur
Portée à l'échelle commune ou EPCI"
I-013;Pays Basque;Mettre en place des filières de proximité pour le pain et la viande;D-64;Pyrénées-Atlantiques;autonomie-alimentaire;INTERCO_INTERMEDIAIRE, INTERCO_RURALE;COMMUNE_INTERMEDIAIRE, COMMUNE_RURALE, NON_SPECIALISE;INTERCO_TOUS, COMMUNE_TOUS, AGRICULTURE_TOUS;;Filières de proximité;Le travail de l’association Uztartu rassemblant des entreprises agroalimentaires et des structures agricoles a permis la structuration de filières locales pour le pain et la viande bovine.;;En savoir plus sur cette initiative;https://herriko.fr/;img0013;;132.08000000000001;DEFAUT;TERRES_SUFFISANTES;Réseau local;Rural;Polyculture-polyélevage;Montagne;Nouvelle-Aquitaine;Pyrénées-Atlantiques;"Portage associatif, pas de territoire porteur
Portée à l'échelle EPCI ou département"
I-014;Communauté de communes du Clunisois (71);Soutenir la transformation agroalimentaire dans un territoire rural;E-200040293;Communauté de communes du Clunisois;autonomie-alimentaire;REGION, DEPARTEMENT, INTERCO_RURALE;INTERCO_INTERMEDIAIRE, NON_SPECIALISE;INTERCO_TOUS, COMMUNE_TOUS, AGRICULTURE_TOUS;;Filières de proximité;Le territoire dispose d'un pôle de transformation agroalimentaire destiné à structurer les filières de proximité. Les agriculteurs peuvent livrer leur lait à une fromagerie soutenue par la collectivité ou transformer directement leurs produits dans un atelier dédié.;;En savoir plus sur cette initiative;https://www.agri71.fr/articles/08/04/2022/Clunisois-deux-outils-au-service-du-projet-alimentaire-de-territoire-70423/;img0014;;455.19;ELEVAGE_EXTENSIF;TERRES_SUFFISANTES;EPCI;Rural;Polyculture-polyélevage;;Bourgogne-Franche-Comté;Saône-et-Loire;
I-015;Dijon Métropole (21);Accompagner la transformation agricole et alimentaire d'un territoire;E-242100410;Dijon Métropole;autonomie-alimentaire;INTERCO_URBAINE, COMMUNE_URBAINE;INTERCO_INTERMEDIAIRE, GRANDES_CULTURES;INTERCO_TOUS, COMMUNE_TOUS, AGRICULTURE_TOUS;;Filières de proximité, Restauration collective, Agroécologie;Ce territoire a lancé un programme ambitieux sur l’alimentation et l’agriculture durables. Parmi les objectifs poursuivis : l’accompagnement à la conversion en agriculture biologique, le développement de filières locales pour les légumineuses, la création d’une légumerie pour la restauration collective…;;En savoir plus sur cette initiative;https://www.inrae.fr/dossiers/alimentation-saine-durable/recherche-lepreuve-du-reel-entretien-sophie-nicklaus;img0015;;8.0999999999999996;URBAIN;TERRES_INSUFFISANTES;EPCI;Urbain;Grandes cultures;;Bourgogne-Franche-Comté;Côte-d'Or;
I-016;Parc Naturel Régional du Perche (61);Renforcer les filières alimentaires de proximité, l'exemple d'un Parc Naturel Régional;PNR-FR8000034;PNR du Perche;autonomie-alimentaire;PAYS, REGION, DEPARTEMENT, INTERCO_INTERMEDIAIRE, INTERCO_RURALE, PARC_NATUREL_REGIONAL_TOUS;NON_SPECIALISE;INTERCO_TOUS, COMMUNE_TOUS, AGRICULTURE_TOUS;9;Filières de proximité, Facilitation logistique;Le PNR du Perche porte de nombreuses actions en faveur des filières alimentaires de proximité : marché d'intérêt local (plateforme logistique), filière blé-farine-pain (la baguette du Perche), atelier de transformation laitière (SAS Pur Perche).;;En savoir plus sur cette initiative;https://www.parc-naturel-perche.fr/actualites/le-projet-alimentaire-de-territoire-du-perche-officiellement-reconnu;img0016;;473.24000000000001;DEFAUT;TERRES_SUFFISANTES;Parc Naturel Régional;Rural;Polyculture-polyélevage;;Normandie / Centre-Val de Loire;Orne / Eure-et-Loir;
I-017;Nancy (54);Améliorer l'offre en produits locaux grâce à un supermarché coopératif;C-54395;Nancy;autonomie-alimentaire;INTERCO_URBAINE, COMMUNE_URBAINE;INTERCO_INTERMEDIAIRE, COMMUNE_INTERMEDIAIRE, NON_SPECIALISE;INTERCO_TOUS, COMMUNE_TOUS, AGRICULTURE_TOUS;;Approvisionnement en produits locaux;La Grande Épicerie Générale est un supermarché coopératif qui propose des produits, souvent issus de l'agriculture locale et/ou biologique, à des prix avantageux. Elle participe à consolider les filières alimentaires de proximité.;;En savoir plus sur cette initiative;https://www.grandeepiceriegenerale.fr/;img0017;;0;URBAIN;TERRES_INSUFFISANTES;Commune;Urbain;Polyculture-polyélevage;;Grand Est;Meurthe-et-Moselle;
I-018;Pays de Langres (52);Faciliter la logistique entre producteurs et restauration collective en zone rurale;PAYS_PETR-GE35;PAYS DE LANGRES;autonomie-alimentaire;INTERCO_RURALE;INTERCO_INTERMEDIAIRE, NON_SPECIALISE;INTERCO_TOUS, COMMUNE_TOUS, AGRICULTURE_TOUS;;Facilitation logistique;Dans le cadre de son Projet Alimentaire Territorial, le PETR du Pays de Langres cherche à faciliter la logistique des filières de proximité. Il a mis en place un service de livraison pour l'approvisionnement de la restauration collective en produits locaux. ;;Lire le retour d'expérience sur le site de la Banque des Territoires;https://www.banquedesterritoires.fr/experience/le-pays-de-langres-livre-la-restauration-collective-et-developpe-lagriculture-de;img0018;;876.49000000000001;DEFAUT;TERRES_SUFFISANTES;EPCI;Rural;Polyculture-polyélevage;;Grand Est;Haute-Marne;
I-019;Félines-Minervois (34);Développer l'autonomie alimentaire à l'échelle d'une commune;C-34097;Félines-Minervois;autonomie-alimentaire;PAYS, COMMUNE_RURALE;INTERCO_RURALE, COMMUNE_INTERMEDIAIRE, NON_SPECIALISE;INTERCO_TOUS, COMMUNE_TOUS, AGRICULTURE_TOUS;9;Filières de proximité, Installation agricole;Grâce à une équipe municipale dynamique, la commune mène plusieurs actions en faveur de l'agriculture et de l'alimentation locales : soutien à l'installation, diversification des productions, structuration des débouchés, création d'un lieu de stockage et de transformation des produits agricoles, aide à l'émergence d'une antenne locale de l'Atelier Paysan.;;Lire le retour d'expérience sur le site de Terre de Liens;https://ressources.terredeliens.org/recolte/felines-minervois-vers-l-autosuffisance-alimentaire-11;img0019;;87.319999999999993;VITICULTURE;TERRES_SUFFISANTES;Commune;Rural;Viticulture;Montagne;Occitanie;Hérault;
I-020;Pays de Trie et du Magnoac (65);Créer un atelier de transformation au service d'une filière blé dur - pâtes;E-200070795;Communauté de communes du Pays de Trie et du Magnoac;autonomie-alimentaire;INTERCO_RURALE;INTERCO_INTERMEDIAIRE, COMMUNE_INTERMEDIAIRE, COMMUNE_RURALE, NON_SPECIALISE;INTERCO_TOUS, COMMUNE_TOUS, AGRICULTURE_TOUS;;Filières de proximité;Réunis au sein de la SCIC l'Odyssée d'engrain, producteurs et collectivités locales ont monté un atelier de transformation de pâtes alimentaires. La filière blé dur AB locale a ainsi pu se structurer, en valorisant notamment des variétés anciennes.;;Lire le retour d'expérience sur le site de la Banque des Territoires;https://www.banquedesterritoires.fr/experience/du-ble-aux-pates-une-aventure-soutenue-par-la-communaute-de-communes-pays-de-trie-et-du;img0020;;845.88999999999999;DEFAUT;TERRES_SUFFISANTES;EPCI;Rural;Polyculture-polyélevage;;Occitanie;Hautes-Pyrénées;Initiative de producteurs avec soutien collectivité
I-021;Chantonnay (85);S'organiser collectivement pour créer une filière légumes secs;C-85051;Chantonnay;autonomie-alimentaire;INTERCO_RURALE;INTERCO_INTERMEDIAIRE, COMMUNE_INTERMEDIAIRE, COMMUNE_RURALE, ELEVAGE_INTENSIF;INTERCO_TOUS, COMMUNE_TOUS, AGRICULTURE_TOUS;;Filières de proximité, Agroécologie;Des agriculteurs se sont regroupés au sein de la SAS « Légumes secs Bio de Vendée » pour diversifier leurs productions avec la mise en culture de légumes secs destinés à la vente directe sur le territoire.;;En savoir plus sur cette initiative;https://www.terre-net.fr/reportages/article/207386/nous-reservons-l-irrigation-a-l-alimentation-humaine-;img0021;;265.01999999999998;DEFAUT;TERRES_SUFFISANTES;Réseau local;Rural;Élevage intensif;;Pays de la Loire;Vendée;Inititative d'éleveurs, pas de soutien mentionné d'une collectivité
I-023;Bordeaux (33);Favoriser l'accès de tous à une alimentation de qualité à Bordeaux;E-243300316;Bordeaux Métropole;precarite-alimentaire;INTERCO_URBAINE, COMMUNE_URBAINE;;;8;Lutte contre la précarité alimentaire;Une expérimentation inspirée de la Sécurité Sociale de l'Alimentation a débuté en 2024 sur le territoire. Cent participants vont cotiser et recevoir chaque mois une somme d'argent pouvant être dépensée pour l'achat de produits alimentaires. Une charte élaborée par des citoyens définit les critères de conventionnement des produits.;;En savoir plus sur cette initiative;https://www.bordeaux.fr/p155924/une-experimentation-de-securite-sociale-de-l-alimentation-a-bordeaux;img0023;;1.54;URBAIN;TERRES_INSUFFISANTES;EPCI;Urbain;Viticulture;;Nouvelle-Aquitaine;Gironde;
I-024;Montpellier (34);Favoriser l'accès de tous à une alimentation de qualité à Montpellier;E-243400017;Montpellier Méditerranée Métropole;precarite-alimentaire;PAYS, REGION, DEPARTEMENT, INTERCO_URBAINE, INTERCO_INTERMEDIAIRE, COMMUNE_URBAINE, COMMUNE_INTERMEDIAIRE;;;9;Lutte contre la précarité alimentaire;Ce territoire a lancé depuis 2023 une des premières expérimentations de caisse commune alimentaire du pays. 450 habitants cotisent en fonction de leurs moyens et reçoivent 100 euros par mois pour acheter des produits alimentaires dans des lieux décidés collectivement.;;En savoir plus sur cette initiative;https://reporterre.net/A-Montpellier-on-teste-une-caisse-alimentaire-facon-Secu;img0024;;2.04;URBAIN;TERRES_INSUFFISANTES;Commune;Urbain;Viticulture;;Occitanie;Hérault;
I-025;Dieulefit (26);Organiser la solidarité alimentaire sur le territoire;C-26114;Dieulefit;precarite-alimentaire;PAYS, REGION, DEPARTEMENT, INTERCO_INTERMEDIAIRE, INTERCO_RURALE, COMMUNE_INTERMEDIAIRE, COMMUNE_RURALE;;;8;Lutte contre la précarité alimentaire;Plusieurs organisations du territoire ont mis en place une caisse alimentaire commune basée sur un principe de redistribution solidaire enre participants. L'objectif est de proposer dans plusieurs points de vente des prix différenciés et adaptés aux moyens des acheteurs. ;;Découvrir les autres initiatives sur le site du collectif national pour une SSA;https://securite-sociale-alimentation.org/initiative/autour-du-marche-du-lavoir/;img0025;;15.609999999999999;DEFAUT;TERRES_INSUFFISANTES;Commune;Rural;Polyculture-polyélevage;Montagne;Auvergne-Rhône-Alpes;Drôme;
I-026;Cadenet (84);Agir collectivement pour la démocratie et la solidarité alimentaire;E-248400285;Communauté de communes Territoriale Sud-Luberon;precarite-alimentaire;INTERCO_RURALE, COMMUNE_RURALE;;;7;Lutte contre la précarité alimentaire;À l'initiative d'un collectif de citoyens, un conseil local de l'alimentation a été mis en place. Ses membres sont bénéficiaires d'allocations pour des achats des produits alimentaires. Différents niveaux de prise en charge ont été définis selon des critères élaborés par le conseil après plusieurs mois de formation et d'échanges.;;Découvrir les autres initiatives sur le site du collectif national pour une SSA;https://securite-sociale-alimentation.org/initiative/au-maquis/;img0026;;49.969999999999999;VITICULTURE;TERRES_INSUFFISANTES;Commune;Rural;Polyculture-polyélevage;;PACA;Vaucluse;
I-027;France;Développer l'accès à une alimentation durable et de qualité pour tous;P-FR;France;precarite-alimentaire;PAYS, INTERCO_URBAINE, INTERCO_INTERMEDIAIRE, COMMUNE_URBAINE, COMMUNE_INTERMEDIAIRE;;;7;Lutte contre la précarité alimentaire;L'association « Vers un Réseau d'Achat en Commun » est composée d'une vingtaine d'organisations locales, principalement actives dans les quartiers populaires et les campus universitaires. Elle accompagne des collectifs citoyens pour former des groupements d'achats de produits alimentaires de qualité à prix réduit.;;Découvrir les structures locales sur le site de VRAC;https://vrac-asso.org/;img0027;;119.76000000000001;DEFAUT;TERRES_SUFFISANTES;Réseau national;Urbain;;;;;
I-029;Lille (59);Végétaliser la restauration collective dans une grande ville;E-200093201;Lille;consommation;REGION, DEPARTEMENT, INTERCO_URBAINE, COMMUNE_URBAINE;INTERCO_INTERMEDIAIRE, COMMUNE_INTERMEDIAIRE;INTERCO_TOUS, COMMUNE_TOUS;;Restauration collective;Lauréate du label Assiettes Vertes, la ville de Lille propose depuis 2018 deux menus uniques végétariens par semaine dans les écoles publiques.;;En savoir plus sur cette initiative;https://www.lille.fr/Actualites/Lille-laureate-du-label-Assiettes-Vertes;img0029;;0.10000000000000001;URBAIN;TERRES_INSUFFISANTES;Commune;Urbain;Polyculture-polyélevage;;Hauts-de-France;Nord;
I-030;Strasbourg (67);Encourager la végétalisation des menus dans la restauration étudiante;E-246700488;Eurométropole de Strasbourg;consommation;REGION, DEPARTEMENT, INTERCO_URBAINE, COMMUNE_URBAINE;INTERCO_INTERMEDIAIRE, COMMUNE_INTERMEDIAIRE;INTERCO_TOUS, COMMUNE_TOUS;;Restauration collective;Pionnier dans la végétalisation de la restauration étudiante, le Crous de Strasbourg propose une option végétarienne par jour choisie par un tiers des convives ainsi qu'un menu unique végétarien une fois par semaine.;;En savoir plus sur cette initiative;https://www.crous-strasbourg.fr/espace-presse/un-menu-vegetarien-tous-les-mercredis/;img0030;;7.8799999999999999;URBAIN;TERRES_INSUFFISANTES;Commune;Urbain;Polyculture-polyélevage;;Grand Est;Bas-Rhin;CROUS de Strasbourg => co portage avec une collectivité ou entité autonome ?
I-031;Dordogne;Généraliser les produits bio et locaux dans les cantines des collèges;D-24;Dordogne;consommation;PAYS, REGION, DEPARTEMENT, INTERCO_INTERMEDIAIRE;INTERCO_URBAINE;INTERCO_RURALE, COMMUNE_TOUS;;Restauration collective;Le département est très engagé pour proposer une offre bio et locale dans les cantines de ses 35 collèges. Avec l'aide du collectif « Les Pieds dans le Plat », il forme les équipes de cuisine et structure les filières d'approvisionnement.;;En savoir plus sur cette initiative;https://lareleveetlapeste.fr/la-dordogne-pionniere-des-cantines-100-bio-et-locales/;img0031;;193;DEFAUT;TERRES_SUFFISANTES;Département;Rural;Polyculture-polyélevage;;Nouvelle-Aquitaine;Dordogne;
I-032;Saint-Brieuc Armor Agglomération (22);S'associer pour développer une offre bio et locale en restauration collective;E-200069409;Communauté d'agglomération Saint-Brieuc Armor Agglomération;consommation;INTERCO_INTERMEDIAIRE;INTERCO_TOUS;COMMUNE_TOUS;;Restauration collective;Une quinzaine de communes du territoire se sont associées pour mutualiser leur approvisionnement en produits issus de l'agriculture locale et biologique à destination de la restauration collective.;;En savoir plus sur cette initiative;https://www.bruded.fr/projet/une-groupement-de-commande-pour-plus-de-bio-local-dans-les-cantines-municipales-a-plerin-et-saint-brieuc-armor-agglomeration-22/;img0032;;70.739999999999995;ELEVAGE_INTENSIF;TERRES_PRESQUE_SUFFISANTES;EPCI;Intermédiaire;Élevage intensif;;Bretagne;Côtes-d'Armor;
I-033;Romainville (93);S'engager pour l'alimentation durable dans les cantines scolaires;C-93063;Romainville;consommation;PAYS, COMMUNE_URBAINE, COMMUNE_INTERMEDIAIRE;INTERCO_URBAINE, INTERCO_INTERMEDIAIRE;INTERCO_TOUS, COMMUNE_TOUS;9;Restauration collective;Depuis 2023 l'équipe de l'école Maryse Bastié cuisine elle-même les repas des 320 élèves. En plus d'une offre 100 % bio et locale pionnière en Île-de-France, la cantine propose deux repas uniques végétariens par semaine et une alternative végétarienne les autres jours. La gestion en propre a par ailleurs permis de faire des économies sur le coût des repas.;;En savoir plus sur cette initiative;https://www.restauration21.fr/restauration21/2023/05/la-ville-de-romainville-remplace-loffice-de-l%C3%A9cole-maryse-basti%C3%A9-par-une-cuisine-d%C3%A9centralis%C3%A9e.html;img0033;;0;URBAIN;TERRES_INSUFFISANTES;Commune;Urbain;Grandes cultures;;Île-de-France;Seine-Saint-Denis;
I-034;Saint-Junien (87);Fournir la cantine en légumes frais grâce à un potager communal;C-87154;Saint-Junien;consommation;COMMUNE_RURALE;INTERCO_RURALE, COMMUNE_INTERMEDIAIRE;INTERCO_TOUS, COMMUNE_TOUS;;Restauration collective;Depuis 2022, la commune de Saint-Junien s'est dotée d'un potager municipal pour l'approvisionnement de la cuisine centrale en légumes bio et de saison. Deux maraîchers employés par la commune y travaillent à temps plein.;;Lire le retour d'expérience sur le site de la Banque des Territoires;https://www.banquedesterritoires.fr/experience/saint-junien-cultive-son-circuit-court-du-potager-la-cuisine-centrale-87;img0034;;62.170000000000002;ELEVAGE_EXTENSIF;TERRES_PRESQUE_SUFFISANTES;Commune;Rural;Élevage extensif;;Nouvelle-Aquitaine;Haute-Vienne;
I-035;Mouans-Sartoux (06);Mener une politique municipale en faveur de l'alimentation durable;C-06084;Mouans-Sartoux;consommation;PAYS, COMMUNE_INTERMEDIAIRE;INTERCO_INTERMEDIAIRE, COMMUNE_TOUS;EPCI_TOUS;;Restauration collective;Dans cette commune pionnière en matière d'alimentation durable, les cantines des trois écoles municipales proposent des menus 100 % bio et faisant la part belle aux produits de saison, locaux, et végétaux. Plus de 80 % des légumes proviennent de la régie agricole de la ville, cultivée par le maraîcher municipal.;;En savoir plus sur cette initiative;https://mead-mouans-sartoux.fr/manger-bio/;img0035;;0.14000000000000001;URBAIN;TERRES_INSUFFISANTES;Commune;Intermédiaire;Fruits, légumes, horticulture;;PACA;Alpes-Maritimes;
I-036;Terres de Druance (14);Reprendre la gestion de la restauration scolaire dans une commune rurale;C-14357;Terres de Druance;consommation;INTERCO_RURALE, COMMUNE_RURALE;;INTERCO_TOUS, COMMUNE_TOUS;;Restauration collective;Depuis 2011, la cantine scolaire de Terres de Durance est revenue à une gestion en direct pour ses 75 repas quotidiens. Les menus sont cuisinés sur place et font la parte belle aux produits bio et issus de l'agriculture locale.;;En savoir plus sur cette initiative;https://grand-format.net/series/cantine-bio-produits-locaux-conversion-normandie/;img0036;;872.10000000000002;ELEVAGE_EXTENSIF;TERRES_SUFFISANTES;Commune;Rural;Polyculture-polyélevage;;Normandie;Calvados;
I-037;Alloue (16);Organiser collectivement le renouvellement agricole dans une commune rurale;C-16007;Alloue;evolution-population-agricole;COMMUNE_RURALE;INTERCO_RURALE, COMMUNE_INTERMEDIAIRE, NON_SPECIALISE;INTERCO_TOUS, COMMUNE_TOUS, AGRICULTURE_TOUS;8;Installation agricole;Les agriculteurs et habitants de la commune d’Alloue ont fondé la SCIC Terres en Chemin pour faciliter le renouvellement agricole et notamment la gestion des terres en attente de repreneur.;;En savoir plus sur cette initiative;https://pqn-a.fr/fr/acteurs-territoires/experiences/terre-en-chemin ;img0037;;2057.96;ELEVAGE_EXTENSIF;TERRES_SUFFISANTES;Commune;Rural;Polyculture-polyélevage;;Nouvelle-Aquitaine;Charente;
I-038;Parc Naturel Régional Livradois-Forez (63);Favoriser l'installation, l'exemple d'un Parc Naturel Régional;PNR-FR8000019;PNR Livradois-Forez;evolution-population-agricole;REGION, DEPARTEMENT, PARC_NATUREL_REGIONAL_TOUS, INTERCO_RURALE;INTERCO_INTERMEDIAIRE, ELEVAGE_EXTENSIF;INTERCO_TOUS, COMMUNE_TOUS, AGRICULTURE_TOUS;;Installation agricole;Depuis 2005, le PNR s'est doté d'un « réseau installation foncier » pour favoriser le renouvellement des actifs agricoles. Parmi les actions du réseau : animation auprès des futurs cédants, facilitation des échanges parcellaires, partenariat avec la SAFER pour le portage de foncier.;;En savoir plus sur cette initiative;https://www.cerdd.org/Parcours-thematiques/Alimentation-durable/Ressources-Alimentation-Durable/Dossier-l-agriculture-un-projet-de-territoire;img0038;;186.13999999999999;ELEVAGE_EXTENSIF;TERRES_SUFFISANTES;EPCI;Rural;Élevage extensif;Montagne;Auvergne-Rhône-Alpes;Puy-de-Dôme / Haute-Loire / Loire;
I-039;Communauté de communes du Val de Drôme en Biovallée (26);Intervenir sur le foncier pour favoriser l'installation agricole;E-242600252;Communauté de communes du Val de Drôme en Biovallée;evolution-population-agricole;PAYS, INTERCO_RURALE;INTERCO_INTERMEDIAIRE, NON_SPECIALISE;INTERCO_TOUS, COMMUNE_TOUS, AGRICULTURE_TOUS;;Installation agricole;La collectivité s’est dotée d’un fonds d’intervention foncière pour acquérir des terres de manière temporaire et permettre à des projets d’installation d’aboutir.;;Lire le retour d'expérience sur le site de Terre de Liens;https://ressources.terredeliens.org/recolte/le-fonds-d-intervention-fonciere-du-val-de-drome-26;img0039;;155.5;DEFAUT;TERRES_SUFFISANTES;EPCI;Rural;Polyculture-polyélevage;Montagne;Auvergne-Rhône-Alpes;Drôme;
I-040;Ille-et-Vilaine;Intervenir sur le foncier à l'échelle départementale;D-35;Ille-et-Vilaine;evolution-population-agricole;REGION, DEPARTEMENT, INTERCO_INTERMEDIAIRE;INTERCO_URBAINE, INTERCO_RURALE, ELEVAGE_INTENSIF, NON_SPECIALISE;INTERCO_TOUS, COMMUNE_TOUS, AGRICULTURE_TOUS;;Installation agricole;En partenariat avec la SAFER, le département soutient les installations agricoles grâce à l’acquisition temporaire (portage) de foncier.;;Lire le retour d'expérience sur le site de Terre de Liens;https://ressources.terredeliens.org/recolte/une-convention-de-partenariat-entre-l-ille-et-vilaine-et-la-safer-bretagne-35;img0040;;141.25;DEFAUT;TERRES_SUFFISANTES;Département;Intermédiaire;Élevage intensif;;Bretagne;Ille-et-Vilaine;
I-041;Locmariaquer (56);Installer un maraîcher bio dans un contexte de déprise agricole et de pression foncière;C-56116;Locmariaquer;evolution-population-agricole;COMMUNE_RURALE;INTERCO_RURALE, COMMUNE_URBAINE, NON_SPECIALISE;INTERCO_TOUS, COMMUNE_TOUS, AGRICULTURE_TOUS;;Installation agricole;Soucieuse de lutter contre la déprise agricole, la commune mène une politique volontariste de rachat de terres et d'animation foncière. En 2010 elle investit 130 000 euros pour construire un hangar agricole et accueillir un maraîcher.;;Lire le retour d'expérience sur le site de Terre de Liens;https://ressources.terredeliens.org/recolte/la-ferme-communale-a-locmariaquer-56;img0041;;46.009999999999998;ELEVAGE_EXTENSIF;TERRES_INSUFFISANTES;Commune;Rural;Polyculture-polyélevage;;Bretagne;Morbihan;
I-042;Communauté de communes du Romorantinais et du Monestois (41);Lutter contre la déprise agricole à l'échelle d'une intercommunalité;E-200018406;Communauté de communes du Romorantinais et du Monestois;evolution-population-agricole;INTERCO_INTERMEDIAIRE, INTERCO_RURALE;NON_SPECIALISE;INTERCO_TOUS, COMMUNE_TOUS, AGRICULTURE_TOUS;;Installation agricole;Pour lutter contre la déprise agricole, la collectivité propose des aides pour inciter les propriétaires à louer leurs terres et pour faciliter le remise en état des parcelles en friches.;;Lire le retour d'expérience sur le site de Terre de Liens;https://ressources.terredeliens.org/recolte/la-politique-agricole-et-fonciere-de-la-communaute-de-communes-du-romorantinais-et-du-monestois-41;img0042;;70.290000000000006;DEFAUT;TERRES_PRESQUE_SUFFISANTES;EPCI;Intermédiaire;Polyculture-polyélevage;;Centre-Val de Loire;Loir-et-Cher;
I-043;Cœur d'Essonne Agglomération (91);Accompagner la création et la reprise d'exploitations agricoles;E-200057859;Communauté d'agglomération Cœur d'Essonne Agglomération;evolution-population-agricole;PAYS, INTERCO_URBAINE;INTERCO_INTERMEDIAIRE, GRANDES_CULTURES;INTERCO_TOUS, COMMUNE_TOUS, AGRICULTURE_TOUS;;Installation agricole;Le territoire est engagé dans la transformation des pratiques agricoles et alimentaires, notamment à travers le programme « Sésame ». Elle s'est dotée en 2021 d'une cellule foncière multi-partenariale pour assurer une veille sur les opportunités de reprise et se donner des moyens d'animation et d'intervention.;;Lire le retour d'expérience sur le site de Terre de Liens;https://ressources.terredeliens.org/recolte/le-programme-sesame-la-ferme-de-l-envol-et-la-cellule-fonciere-de-coeur-d-essonne-agglomeration-91;img0043;;4.0700000000000003;URBAIN;TERRES_INSUFFISANTES;EPCI;Urbain;Grandes cultures;;Île-de-France;Essonne;
I-044;Le Bourg (46);Sécuriser l'installation agricole grâce à l'acquisition collective de foncier;E-200067361;Communauté de communes Grand-Figeac;evolution-population-agricole;COMMUNE_RURALE;COMMUNE_INTERMEDIAIRE, ELEVAGE_EXTENSIF;INTERCO_TOUS, COMMUNE_TOUS, AGRICULTURE_TOUS;;Installation agricole;La Foncière Élémentaire est un fonds de dotation dédié à l'achat de terres agricoles grâce au financement citoyen. Créé à l'initiative de la ferme de la Rauze pour sécuriser sa situation foncière, l'outil peut être mobilisé pour d'autres acquisitions et favoriser l'installation d'agriculteurs sur le territoire.;;En savoir plus sur cette initiative;https://fonciere-elementaire.fr/;img0044;;314.82999999999998;ELEVAGE_EXTENSIF;TERRES_SUFFISANTES;Commune;Rural;Élevage extensif;Montagne;Occitanie;Lot;
I-045;Douelle (46);Soutenir l'installation en maraîchage dans un contexte de forte déprise agricole;C-46088;Douelle;evolution-population-agricole;COMMUNE_RURALE;COMMUNE_INTERMEDIAIRE, VITICULTURE;INTERCO_TOUS, COMMUNE_TOUS, AGRICULTURE_TOUS;;Installation agricole;Confrontée à une forte déprise agricole et à un parcellaire morcelé, la commune a mené un travail d'animation foncière important en vue de faciliter l'installation. La création d'une association foncière agricole libre et l'acquisition de certains terrains ont fait partie des outils mobilisés pour permettre l'installation de deux maraîchers.;;Lire le retour d'expérience sur le site de Terre de Liens;https://ressources.terredeliens.org/recolte/douelle;img0045;;43.490000000000002;FRUITS_ET_LEGUMES;TERRES_INSUFFISANTES;Commune;Rural;Viticulture;;Occitanie;Lot;
I-046;Saint-André (66);Convaincre des propriétaires fonciers réticents de louer leurs terres;C-66168;Saint-André;evolution-population-agricole;COMMUNE_RURALE;COMMUNE_INTERMEDIAIRE, NON_SPECIALISE;INTERCO_TOUS, COMMUNE_TOUS, AGRICULTURE_TOUS;;Installation agricole;Confrontée à des problèmes de rétention foncière et d'enfrichement des terres agricoles, la commune travaille auprès des propriétaires pour les convaincre de mettre leurs terres à disposition de nouveaux agriculteurs.;;Lire le retour d'expérience sur le site de Terre de Liens;https://ressources.terredeliens.org/recolte/de-la-remobilisation-de-friches-a-l-installation-de-porteurs-de-projets-agricoles;img0046;;6.2999999999999998;URBAIN;TERRES_INSUFFISANTES;Commune;Rural;Polyculture-polyélevage;Montagne;Occitanie;Pyrénées-Orientales;
I-047;Nantes Métropole (44);Favoriser l'installation agricole à l'échelle d'une métropole;E-244400404;Nantes Métropole;evolution-population-agricole;INTERCO_URBAINE, INTERCO_INTERMEDIAIRE, COMMUNE_URBAINE;AGRICULTURE_TOUS;INTERCO_TOUS, COMMUNE_TOUS;9;Installation agricole;Plus de quinze installations en agriculture biologique ont été accompagnées depuis 2020 par Nantes Métropole dans le cadre de son Projet Alimentaire Territorial. La collectivité soutient l'investissement dans des équipements et des aménagements (défrichage, forages) et dans le logement des agriculteurs.;;En savoir plus sur cette initiative;https://metropole.nantes.fr/agriculture-alimentation;img0047;;8.4299999999999997;URBAIN;TERRES_INSUFFISANTES;EPCI;Urbain;Polyculture-polyélevage;;Pays de la Loire;Loire-Atlantique;
I-048;Région Pays de la Loire;Acquérir et gérer collectivement le foncier pour favoriser le renouvellement agricole;R-52;Pays de la Loire;evolution-population-agricole;REGION, DEPARTEMENT;NON_SPECIALISE;INTERCO_TOUS, COMMUNE_TOUS, AGRICULTURE_TOUS;;Installation agricole;Fondée en 2018 à l’initiative de l’association Terre de Liens Pays de la Loire, la SCIC Passeurs de Terres réunit habitants et agriculteurs pour acquérir et gérer collectivement du foncier sur le territoire. La réduction du coût de l'installation et de l'endettement permet une meilleure rémunération.;;En savoir plus sur cette initiative;https://passeursdeterres.org/;img0048;;221.24000000000001;DEFAUT;TERRES_SUFFISANTES;Réseau régional;Intermédiaire;Polyculture-polyélevage;;Pays de la Loire;;
I-049;Plessé (44);Mener une politique municipale volontariste pour l'installation agricole;C-44128;Plessé;evolution-population-agricole;PAYS, COMMUNE_INTERMEDIAIRE, COMMUNE_RURALE;INTERCO_RURALE, INTERCO_INTERMEDIAIRE, COMMUNE_URBAINE, AGRICULTURE_TOUS;INTERCO_TOUS, COMMUNE_TOUS;9;Installation agricole, Agroécologie;La liste citoyenne qui dirige Plessé depuis 2020 s'est dotée de sa propre politique agricole communale. Les actions en faveur du renouvellement des actifs y occupent une place centrale : animation auprès des agriculteurs futurs retraités, intervention foncière, aide au logement, structuration de la demande pour les produits locaux.;;En savoir plus sur cette initiative;https://reporterre.net/Pres-de-Nantes-une-mairie-citoyenne-aide-les-paysans-a-s-installer;img0049;;519.40999999999997;ELEVAGE_INTENSIF;TERRES_SUFFISANTES;Commune;Rural;Polyculture-polyélevage;;Pays de la Loire;Loire-Atlantique;
I-050;Montelier (26);Diversifier les productions et accueillir la biodiversité sur une petite exploitation;C-26197;Montélier;biodiversite;PAYS, COMMUNE_RURALE;INTERCO_RURALE, COMMUNE_INTERMEDIAIRE, NON_SPECIALISE;INTERCO_TOUS, COMMUNE_TOUS, AGRICULTURE_TOUS;;Agroécologie;Sur la ferme du Grand Laval, un système de polyculture-polyélevage en AB fait vivre deux personnes sur 27 hectares. L'exploitation est très économe en intrants et cherche à accueillir une vie sauvage riche pour limiter les risques liés aux ravageurs.;;Lire le témoignage sur le site OSAÉ de Solagro;https://osez-agroecologie.org/blache-carte-identite;img0050;;119.65000000000001;DEFAUT;TERRES_SUFFISANTES;Exploitation agricole;Rural;Polyculture-polyélevage;;Auvergne-Rhône-Alpes;Drôme;
I-051;Lons-le-Saunier (39);Améliorer la qualité de l'eau en soutenant l'agriculture biologique;C-39300;Lons-le-Saunier;dependances-ressources, biodiversite;COMMUNE_INTERMEDIAIRE;NON_SPECIALISE;INTERCO_TOUS, COMMUNE_TOUS, AGRICULTURE_TOUS;;Agroécologie;Confrontée à des problèmes de qualité de son eau potable, la ville de Lons-le-Saunier a lancé dès les années 2000 une politique de soutien à l’agriculture biologique : rémunération pour encourager les changements de pratiques, structuration des débouchés pour les produits bio, acquisition de terres, etc.;;Lire le retour d'expérience sur le site Territoires Bio;https://territoiresbio.fr/decouvrez-leurs-experiences/lons-le-saunier/;img0051;;0.26000000000000001;URBAIN;TERRES_INSUFFISANTES;Commune;Intermédiaire;Polyculture-polyélevage;;Bourgogne-Franche-Comté;Jura;
I-052;Collectivité Eau du Bassin Rennais (35);Lier pratiques agricoles durables et amélioration de la qualité de l'eau;E-243500139;Rennes Métropole;biodiversite;PAYS, DEPARTEMENT, INTERCO_INTERMEDIAIRE;INTERCO_TOUS, ELEVAGE_INTENSIF, NON_SPECIALISE;COMMUNE_TOUS, AGRICULTURE_TOUS;;Agroécologie;Le syndicat Collectivité Eau du Bassin Rennais coordonne le programme « Terres de Sources » qui vise le développement de pratiques agricoles durables sur les aires d'alimentation en eau potable du territoire. Les actions sont portées par une SCIC dédiée et incluent entre autres de l'animation territoriale, la structuration de filières, la création d'un label pour valoriser les produits auprès des consommateurs.;;Lire le retour d'expérience sur le site de la Banque des Territoires;https://www.banquedesterritoires.fr/terres-de-sources-une-cooperative-pour-une-alimentation-locale-et-une-meilleure-qualite-de-leau-35;img0052;;29.25;DEFAUT;TERRES_INSUFFISANTES;EPCI;Intermédiaire;Élevage intensif;;Bretagne;Ille-et-Vilaine;
I-053;Syndicat mixte des eaux de Seille et Moselle (54);Développer les surfaces en prairies pour protéger la ressource en eau;E-200070589;Communauté de communes de Seille et Grand Couronné;dependances-ressources, biodiversite;INTERCO_RURALE;INTERCO_INTERMEDIAIRE, NON_SPECIALISE;INTERCO_TOUS, COMMUNE_TOUS, AGRICULTURE_TOUS;;Agroécologie;Confronté à des problèmes de qualité de l'eau potable, le syndicat mixte des eaux de Seille et Moselle a acquis des terres dans les aires d'alimentation et de captage afin d'y implanter des prairies.;;Lire le retour d'expérience sur le site de la Banque des Territoires;https://www.banquedesterritoires.fr/experience/pour-proteger-son-eau-potable-le-syndicat-mixte-des-eaux-de-seille-et-moselle-mise-sur;img0053;;424.49000000000001;DEFAUT;TERRES_SUFFISANTES;EPCI;Rural;Polyculture-polyélevage;;Grand Est;Meurthe-et-Moselle;
I-054;Douaisis Agglo (59);Tester les pratiques de l'agriculture biologique avant une conversion;E-200044618;Communauté d'agglomération Douaisis Agglo;dependances-ressources, biodiversite;INTERCO_URBAINE, INTERCO_INTERMEDIAIRE,  COMMUNE_URBAINE;COMMUNE_INTERMEDIAIRE, GRANDES_CULTURES;INTERCO_TOUS, COMMUNE_TOUS, AGRICULTURE_TOUS;;Agroécologie;Les agriculteurs actifs ou en cours d'installation intéressés par l'agriculture biologique peuvent se tester sur 12 hectares mis à disposition par la communauté d'agglomération. Ils peuvent se familiariser avec les pratiques propres à l'AB et expérimenter de nouvelles cultures.;;Lire le retour d'expérience sur le site de Terre de Liens;https://ressources.terredeliens.org/recolte/une-zone-test-en-grandes-cutures-mise-en-place-par-douaisis-agglo-59;img0054;;28.510000000000002;GRANDES_CULTURES;TERRES_INSUFFISANTES;EPCI;Urbain;Grandes cultures;;Hauts-de-France;Nord;
I-055;Parc Naturel Régional de l'Avesnois (59);Soutenir l'agriculture biologique, l'exemple d'un Parc Naturel Régional;PNR-FR8000036;PNR de l'Avesnois;dependances-ressources, biodiversite;INTERCO_RURALE, PARC_NATUREL_REGIONAL_TOUS;INTERCO_INTERMEDIAIRE, NON_SPECIALISE;INTERCO_TOUS, COMMUNE_TOUS, AGRICULTURE_TOUS;;Agroécologie;En lien avec les collectivités du territoire et les organisations agricoles, le Parc porte un programme de développement de l'agriculture biologique et de structuration des débouchés.;;Lire le retour d'expérience sur le site Territoires Bio;https://territoiresbio.fr/decouvrez-leurs-experiences/parc-naturel-regional-pnr-de-lavesnois/;img0055;;186.72;ELEVAGE_INTENSIF;TERRES_SUFFISANTES;Parc Naturel Régional;Rural;Polyculture-polyélevage;;Hauts-de-France;Nord;
I-056;Eau de Paris;Soutenir techniquement et financièrement les pratiques agricoles durables;C-75056;Paris;dependances-ressources, biodiversite;REGION, INTERCO_URBAINE, COMMUNE_URBAINE;INTERCO_INTERMEDIAIRE, NON_SPECIALISE;INTERCO_TOUS, COMMUNE_TOUS, AGRICULTURE_TOUS;;Agroécologie;L'établissement en charge de l'approvisionnement en eau de la ville de Paris agit en faveur des pratiques agricoles durables sur ses aires de captage. En plus d'un travail d'animation territorial régulier et d'acquisitions foncières, Eau de Paris a mis en place un régime d'aide spécial pour inciter aux conversions en AB et au maintien des prairies.;;Lire le retour d'expérience sur le site Territoires Bio;https://territoiresbio.fr/favoriser-les-conversions-en-bio/paiements-pour-services-environnementaux-eau-de-paris-cree-son-propre-regime-daide-notifie/;img0056;;0;URBAIN;TERRES_INSUFFISANTES;Réseau régional;Intermédiaire;Polyculture-polyélevage;;Île-de-France;Paris;
I-057;Le Havre Seine Métropole (76);Accompagner le développement de l'agriculture biologique sur son territoire;E-200084952;Communauté urbaine Le Havre Seine Métropole;dependances-ressources, biodiversite;PAYS, REGION, DEPARTEMENT, INTERCO_URBAINE, INTERCO_INTERMEDIAIRE, COMMUNE_URBAINE;NON_SPECIALISE;INTERCO_TOUS, COMMUNE_TOUS, AGRICULTURE_TOUS;;Agroécologie;La collectivité anime un projet territorial tourné vers le développement de l'agriculture biologique et des filières de proximité. L'évolution des pratiques est encouragée grâce à un accompagnement technique, un soutien financier direct et une structuration des débouchés.;;Lire le retour d'expérience sur le site Territoires Bio;https://territoiresbio.fr/decouvrez-leurs-experiences/le-havre-territoire-bio/;img0057;;33.759999999999998;DEFAUT;TERRES_INSUFFISANTES;EPCI;Urbain;Polyculture-polyélevage;;Normandie;Seine-Maritime;
I-058;Crastes (32);Gagner en autonomie sur une exploitation agricole diversifiée;C-32112;Crastes;dependances-ressources;PAYS, INTERCO_RURALE, COMMUNE_RURALE;COMMUNE_INTERMEDIAIRE, AGRICULTURE_TOUS;INTERCO_TOUS, COMMUNE_TOUS;9;Agroécologie;Le GAEC de Couayroux dans le Gers conduit un système de polyculture-élevage en AB. De nombreuses pratiques agroécologiques ont été mises en place pour gagner en autonomie : agroforesterie, couvert végétaux, allongement des rotations et introduction de légumineuses...;;Lire le témoignage sur le site OSAÉ de Solagro;https://osez-agroecologie.org/daguzan-carte-identite;img0058;;2445.6599999999999;GRANDES_CULTURES;TERRES_SUFFISANTES;Exploitation agricole;Rural;Polyculture-polyélevage;;Occitanie;Gers;
I-059;Parigné-sur-Braye (53);Préserver et valoriser les haies agricoles grâce à une filière locale bois énergie;E-200055887;Communauté de communes Mayenne Communauté;biodiversite;PAYS, REGION, DEPARTEMENT, INTERCO_RURALE, INTERCO_INTERMEDIAIRE;;INTERCO_TOUS, COMMUNE_TOUS, AGRICULTURE_TOUS;9;Agroécologie;La SCIC Mayenne Bois Énergie valorise la ressource locale en bois, principalement issu des haies agricoles. Elle fédère fournisseurs et usagers autour d'un projet de gestion durable du bocage.;;En savoir plus sur cette initiative;https://www.mayenne-bois-energie.fr/;img0059;;483.44;ELEVAGE_INTENSIF;TERRES_SUFFISANTES;Réseau départemental;Rural;Polyculture-polyélevage;;Pays de la Loire;Mayenne;
I-060;Saints-en-Puisaye (89);Accompagner la transformation des pratiques agricoles à l'échelle d'une commune;C-89367;Saints-en-Puisaye;dependances-ressources, biodiversite;COMMUNE_RURALE;INTERCO_RURALE, COMMUNE_INTERMEDIAIRE, NON_SPECIALISE;INTERCO_TOUS, COMMUNE_TOUS, AGRICULTURE_TOUS;;Agroécologie;Afin de rendre à nouveau potable l'eau du captage de la commune, contaminée aux nitrates et aux pesticides, agriculteurs et élus se sont mobilisés pour réduire l'utilisation d'intrants, implanter des prairies et développer l'agriculture biologique.;;En savoir plus sur cette initiative;https://reporterre.net/Agriculteurs-ils-ont-sauve-une-source-d-eau-de-la-pollution;img0060;;;;;;;;;;;
I-061;Gibles (71);Soutenir la réouverture de commerces dans les bourgs et les villages;C-71218;Gibles;commerces-alimentaires;;;;9;Commerces alimentaires;La coopérative « Villages Vivants » accompagne collectifs citoyens, collectivités et entrepreneurs de l'économie sociale et solidaire pour acquérir des locaux et installer des commerces de proximité dans les espaces ruraux.;;En savoir plus sur cette initiative;https://reporterre.net/Auberge-boulangerie-Une-cooperative-redonne-vie-a-des-villages-moribonds;img0061;;;;;;;;;;;
I-062;Tiercé (49);Proposer une offre alimentaire de proximité grâce aux commerces ambulants;C-49347;Tiercé;commerces-alimentaires;;;;8;Commerces alimentaires;Avec son épicerie mobile, Sandrine Reiss va à la rencontre des habitants des communes dépourvues de commerces alimentaires. Une dizaine de villages du Haut Anjou bénéficient de ce service de proximité.;;En savoir plus sur cette initiative;https://france3-regions.francetvinfo.fr/pays-de-la-loire/maine-et-loire/angers/j-adore-sillonner-les-routes-de-campagne-sandrine-et-son-epicerie-mobile-redynamisent-les-communes-rurales-2923785.html;img0062;;;;;;;;;;;
I-063;France;Accompagner la création d'épiceries participatives dans les campagnes;P-FR;France;commerces-alimentaires;;;;7;Commerces alimentaires;L'association « Bouge ton coq ! » soutient la création d'épiceries participatives dans les villages dépourvus de commerces alimentaires. Les clients de ces épiceries participent à leur fonctionnement à hauteur de quelques heures par mois (mise en rayons, caisse, etc.).;;En savoir plus sur cette initiative;https://www.radiofrance.fr/francebleu/podcasts/l-invite-du-6-9-de-france-bleu-maine/bouge-ton-coq-ou-quand-les-villages-se-mobilisent-pour-creer-des-epiceries-participatives-4392007;img0063;;;;;;;;;;;
I-064;Drôme;Développer l'accès à une alimentation durable et de qualité pour tous;D-26;Drôme;precarite-alimentaire;REGION, DEPARTEMENT, INTERCO_RURALE, COMMUNE_RURALE;;;6;Lutte contre la précarité alimentaire;L'association VRAC Drôme est rattachée au réseau national « Vers un Réseau d'Achat en Commun ». Elle accompagne la création de groupements d'achats de produits alimentaires de qualité à prix réduit dans les quartiers populaires et les territoires ruraux du département.;;En savoir plus sur le site de VRAC;https://drome.vrac-asso.org/demarche-reseau/;img0027;;;;;;;;;;;
I-065;Cugnaux (31);Déployer des ceintures nourricières autour des grandes villes;C-31157;Toulouse Métropole;evolution-population-agricole;INTERCO_URBAINE, COMMUNE_URBAINE;INTERCO_INTERMEDIAIRE, COMMUNE_INTERMEDIAIRE, AGRICULTURE_TOUS;INTERCO_TOUS, COMMUNE_TOUS;;Installation agricole;Dans l'aire urbaine toulousaine, la SCIC « Le 100e singe » accompagne les communes souhaitant développer la production agricole locale. La ville de Cugnaux a ainsi acquis et aménagé une dizaine d'hectares destinés à accueillir une activité de maraîchage.;;Lire le retour d'expérience sur le site de la Banque des Territoires;https://www.banquedesterritoires.fr/experience/une-ceinture-vivriere-autour-de-toulouse-31;img0065;;;;;;;;;;;
I-066;Région Pays de la Loire;Acquérir et gérer collectivement le foncier pour favoriser le renouvellement agricole;R-52;Pays de la Loire;revenus;PAYS, REGION, DEPARTEMENT, INTERCO_TOUS;;;;Installation agricole;Fondée en 2018 à l’initiative de l’association Terre de Liens Pays de la Loire, la SCIC Passeurs de Terres réunit habitants et agriculteurs pour acquérir et gérer collectivement du foncier sur le territoire. La réduction du coût de l'installation et de l'endettement permet une meilleure rémunération.;;En savoir plus sur cette initiative;https://passeursdeterres.org/;img0048;;;;;;;;;;;
I-067;Parc Naturel Régional du Perche (61);Structurer des filières de proximité pour améliorer le revenu agricole;PNR-FR8000034;PNR du Perche;revenus;PAYS, REGION, DEPARTEMENT, INTERCO_TOUS;;;;Filières de proximité, Facilitation logistique;Le PNR du Perche porte de nombreuses actions en faveur des filières alimentaires de proximité : marché d'intérêt local (plateforme logistique), filière blé-farine-pain, atelier de transformation laitière. Les agriculteurs du territoire bénéficient ainsi de débouchés plus rémunérateurs.;;En savoir plus sur cette initiative;https://www.parc-naturel-perche.fr/actualites/le-projet-alimentaire-de-territoire-du-perche-officiellement-reconnu;img0016;;;;;;;;;;;
I-068;France;Mettre en place une sécurité sociale de l'alimentation;P-FR;France;revenus;PAYS, REGION, DEPARTEMENT, INTERCO_TOUS;;;;Lutte contre la précarité alimentaire;La sécurité sociale de l'alimentation est un projet politique consistant à garantir un accès universel à une alimentation de qualité. En indexant les prix sur les coûts de production réels, c'est un levier majeur pour améliorer la rémunération et les conditions de travail à tous les niveaux du système alimentaire.;;En savoir plus sur cette initiative;https://securite-sociale-alimentation.org/la-ssa/a-propos-de-la-securite-sociale-de-lalimentation/;img0023;;;;;;;;;;;
I-069;Cugnaux (31);Déployer des ceintures nourricières autour des grandes villes;C-31157;Toulouse Métropole;revenus;COMMUNE_URBAINE;;;;Installation agricole;Dans l'aire urbaine toulousaine, la SCIC « Le 100e singe » accompagne les communes souhaitant développer la production agricole locale. La ville de Cugnaux a ainsi acquis et aménagé une dizaine d'hectares destinés à accueillir une activité de maraîchage.;;Lire le retour d'expérience sur le site de la Banque des Territoires;https://www.banquedesterritoires.fr/experience/une-ceinture-vivriere-autour-de-toulouse-31;img0065;;;;;;;;;;;
I-070;Le Havre Seine Métropole (76);Structurer des filières de proximité pour améliorer le revenu agricole;E-200084952;Communauté urbaine Le Havre Seine Métropole;revenus;COMMUNE_URBAINE;;;;Agroécologie;La collectivité anime un projet territorial tourné vers le développement de l'agriculture biologique et des filières de proximité. L'évolution des pratiques est encouragée grâce à un accompagnement technique, un soutien financier direct et une structuration des débouchés.;;Lire le retour d'expérience sur le site Territoires Bio;https://territoiresbio.fr/decouvrez-leurs-experiences/le-havre-territoire-bio/;img0057;;;;;;;;;;;
I-071;Nantes Métropole (44);Favoriser l'installation agricole à l'échelle d'une métropole;E-244400404;Nantes Métropole;revenus;COMMUNE_URBAINE;;;;Installation agricole;Nantes Métropole accompagne l'installation agricole en investissant dans des équipements, des aménagements (défrichage, forages) et dans le logement des agriculteurs. La réduction du coût de l'installation et de l'endettement permet une meilleure rémunération.;;En savoir plus sur cette initiative;https://metropole.nantes.fr/agriculture-alimentation;img0047;;;;;;;;;;;
I-072;Plessé (44);Mener une politique municipale volontariste pour l'installation agricole;C-44128;Plessé;revenus;COMMUNE_INTERMEDIAIRE, COMMUNE_RURALE;;;;Installation agricole, Agroécologie;La liste citoyenne qui dirige Plessé depuis 2020 s'est dotée de sa propre politique agricole communale. De nombreuses actions sont menées pour favoriser l'installation et le logement des agriculteurs, la diminution des investissements nécessaires à la production et la mise en place de débouchés rémunérateurs.;;En savoir plus sur cette initiative;https://reporterre.net/Pres-de-Nantes-une-mairie-citoyenne-aide-les-paysans-a-s-installer;img0049;;;;;;;;;;;
I-073;Félines-Minervois (34);Soutenir l'agriculture locale à l'échelle d'une commune;C-34097;Félines-Minervois;revenus;COMMUNE_INTERMEDIAIRE, COMMUNE_RURALE;;;;Filières de proximité, Installation agricole;Grâce à une équipe municipale dynamique, la commune mène plusieurs actions qui favorisent l'installation mais également la rémunération et les conditions de travail en agriculture : structuration des débouchés, création d'un lieu de stockage et de transformation des produits agricoles, travail sur l'autonomie technique des agriculteurs..;;Lire le retour d'expérience sur le site de Terre de Liens;https://ressources.terredeliens.org/recolte/felines-minervois-vers-l-autosuffisance-alimentaire-11;img0019;;;;;;;;;;;
I-074;Le Bourg (46);Favoriser la rémunération des agriculteurs grâce à l'investissement collectif;E-200067361;Communauté de communes Grand-Figeac;revenus;COMMUNE_INTERMEDIAIRE, COMMUNE_RURALE;;;;Installation agricole;La Foncière Élémentaire est un fonds de dotation dédié à l'achat de terres agricoles grâce au financement citoyen. Créé à l'initiative de la ferme de la Rauze pour sécuriser sa situation foncière, l'outil peut être mobilisé pour d'autres acquisitions. Les agriculteurs peuvent ainsi réduire le recours à l'endettement et améliorer leurs revenus.;;En savoir plus sur cette initiative;https://fonciere-elementaire.fr/;img0044;;;;;;;;;;;
I-075;Vinon-sur-Verdon (83);Réduire les besoins en eau sur une exploitation agricole;C-83150;Vinon-sur-Verdon;prelevements-eau;;;;;Gestion eau;Dans un système en grandes cultures et maraîchage, Guillaume Joubert met en place des actions pour faire face à l'augmentation des sécheresses : couverts végétaux et semis direct, introduction de cultures résistantes, utilisation de variétés précoces.;;Lire le témoignage sur le site OSAÉ de Solagro;https://osez-agroecologie.org/joubert-carte-identite;img0075;;;;;;;;;;;
I-076;Châtillon (92);Recycler les nutriments des villes en valorisant l'urine;C-92020;Châtillon;dependances-ressources;PAYS, REGION, DEPARTEMENT, INTERCO_URBAINE, INTERCO_INTERMEDIAIRE, COMMUNE_URBAINE, COMMUNE_INTERMEDIAIRE;AGRICULTURE_TOUS;INTERCO_TOUS, COMMUNE_TOUS;9;Autonomie;Des habitants de Châtillon récupèrent leur urine et la donnent au maraîcher de leur AMAP lors de ses livraisons. Ce fertilisant de qualité est ensuite utilisé dans les champs par l'agriculteur. Cette expérimentation est suivie par le programme de recherche OCAPI en vue d'une valorisation plus large de l'urine comme fertilisant agricole.;;En savoir plus sur cette initiative;https://usbeketrica.com/fr/article/on-a-visite-le-tout-premier-point-d-apport-d-urine-de-france;img0076;;;;;;;;;;;
;;;;;;;;;;;;;;;;;;;;;;;;;;
;;;;;;;;;;;;;;;;;;;;;;;;;;
;;;;;;;;;;;;;;;;;;;;;;;;;;
;;;;;;;;;;;;;;;;;;;;;;;;;;
;;;;;;;;;;;;;;;;;;;;;;;;;;
;;;;;;;;;;;;;;;;;;;;;;;;;;
;;;;;;;;;;;;;;;;;;;;;;;;;;
;;;;;;;;;;;;;;;;;;;;;;;;;;
;;;;;;;;;;;;;;;;;;;;;;;;;;
;;;;;;;;;;;;;;;;;;;;;;;;;;
;;;;;;;;;;;;;;;;;;;;;;;;;;
;;;;;;;;;;;;;;;;;;;;;;;;;;
;;;;;;;;;;;;;;;;;;;;;;;;;;
;;;;;;;;;;;;;;;;;;;;;;;;;;
;;;;;;;;;;;;;;;;;;;;;;;;;;
;;;;;;;;;;;;;;;;;;;;;;;;;;
;;;;;;;;;;;;;;;;;;;;;;;;;;
