<svg xmlns="http://www.w3.org/2000/svg" width="50" height="44" viewBox="0 0 50 44">
    <g fill="none" fill-rule="evenodd">
        <g fill="#8BA0B8" fill-rule="nonzero">
            <g>
                <path d="M6.519 23.206c0 .074-.006.148-.011.223 0 .037-.032.148 0 .005-.027.116-.048.233-.085.344l-.047.132c.053-.138.01-.026-.006 0-.068.122-.132.238-.211.355.09-.133-.085.095-.117.127-.074.074-.148.142-.227.206.122-.095 0 0-.032.016-.048.032-.095.063-.148.09-.042.02-.085.042-.122.063-.153.085.09-.021-.069.027-.11.037-.222.068-.338.095-.148.037-.037.01 0 .005l-.18.016c-.111.005-.222 0-.328-.005-.228-.01.095.02-.037-.006-.08-.015-.164-.037-.244-.058-.052-.016-.28-.106-.137-.042-.106-.048-.206-.1-.302-.164-.037-.027-.074-.053-.116-.08.143.101-.037-.031-.053-.047-.085-.08-.164-.159-.238-.243-.143-.16.048.079-.021-.032l-.096-.143c-.02-.037-.047-.08-.068-.122 0 .006-.096-.2-.048-.095.048.106-.037-.106-.032-.1-.016-.043-.026-.09-.042-.138-.016-.058-.026-.116-.037-.175-.01-.058-.01-.047 0 .032-.005-.037-.005-.074-.01-.106-.011-.11-.011-.222 0-.328 0 .005.031-.227.01-.11-.021.115.026-.112.026-.107.027-.1.059-.2.09-.301.043-.122-.09.153.016-.032.032-.058.064-.122.1-.18.022-.037.054-.08.075-.116.106-.186-.1.1.042-.059.064-.068.122-.137.19-.2.048-.048.101-.096.154-.138-.026.021-.116.074.005 0 .112-.064.217-.132.328-.19.117-.059-.174.052.037-.017.043-.015.09-.031.133-.042.058-.016.11-.032.17-.042.041-.01.195-.032.036-.016.111-.016.217-.016.328-.016.064 0 .122.005.185.01.17.011-.105-.031.074.011.117.027.228.058.339.095.206.064-.122-.074.069.027.058.032.122.063.18.1.037.022.08.053.116.075.154.09-.063-.07.058.042.1.095.196.19.291.29.021.027.085.123.006 0 .037.06.079.112.11.175.032.048.054.101.085.154l.048.095c-.032-.074-.032-.08-.016-.026.042.121.08.243.106.37.037.148.01.037.005 0 0 .1.006.196.006.296.005.413.36.815.793.794.423-.021.8-.35.794-.794-.021-1.418-.91-2.645-2.244-3.121-1.243-.445-2.735-.022-3.566.994-.878 1.074-1.042 2.604-.322 3.81.72 1.2 2.11 1.794 3.481 1.545 1.54-.28 2.63-1.693 2.65-3.228.006-.412-.37-.814-.793-.793-.434.016-.783.349-.793.793zM7.99 29.476c0 1.778.031 3.556 0 5.328v.053c0 .048-.032.196 0 .042-.011.059-.027.117-.043.17-.032.121.09-.148-.01.037-.032.058-.07.122-.106.18.02-.032.095-.096-.006 0-.047.047-.095.1-.148.143.111-.09.021-.016-.005 0-.064.031-.116.068-.185.1.185-.08-.286.042-.074.021-.143.016-.291.006-.434.006-.429 0-.794.365-.794.793V41.751c.016-.095.01-.095-.01-.005-.006.021-.016.042-.022.064.037-.085.032-.085-.01-.006-.005.01-.01.021-.021.027-.032.047-.027.037.02-.027l-.047.048c.064-.042.074-.053.027-.021-.027.031-.175.084-.021.026-.043.016-.09.027-.133.037.143-.037-.053-.005-.106-.005H3.7c-.032 0-.154-.01-.064 0 .116.016-.095-.032-.1-.032.18.069 0 0 .005-.01-.021-.011-.037-.027-.059-.037.075.052.075.052.006-.011.005.01.01.021.02.026.033.048.027.037-.02-.026-.01.005-.053-.111-.01.005-.017-.037-.043-.238-.033-.063 0-.027-.005-.053 0-.085.006-.116 0-.233 0-.344v-1.63-3.343c0-.429-.365-.794-.793-.794h-.286c.005 0-.227-.021-.111-.005.116.02-.106-.032-.106-.032-.026-.005-.148-.053-.005.005-.064-.026-.122-.069-.185-.1-.122-.064-.037-.027-.006 0-.042-.037-.084-.08-.127-.117-.031-.031-.11-.148-.026-.026-.027-.037-.053-.08-.074-.117-.021-.037-.048-.079-.064-.121.064.143.006-.006 0-.043-.01-.042-.031-.195-.015-.037-.006-.047-.006-.095-.006-.148-.005-.28 0-.555 0-.836v-3.635c0-.29-.005-.582 0-.873 0-.031.037-.243 0-.079.01-.053.09-.291.027-.143.02-.053.053-.1.079-.153.016-.037.111-.154.016-.037.032-.037.058-.07.095-.1.021-.022.185-.144.053-.054.037-.026.08-.053.116-.074 0 0 .202-.09.096-.048-.096.038.312-.052.106-.031.063-.006.126-.006.19-.006 1.037-.005 2.074 0 3.106 0h1.82c.222 0-.085-.026.037.006.021.005.227.063.138.031-.106-.037.095.048.095.048.032.021.19.138.063.032.037.032.069.058.1.095.022.021.144.185.054.053.026.037.053.08.074.116.026.053.074.19.037.064.016.058.032.111.047.17.011.057.011.047 0-.033v.16c.011.412.36.814.794.793.423-.021.804-.35.794-.794-.032-1.275-1.037-2.286-2.318-2.317-.354-.006-.714 0-1.069 0H2.52c-.868 0-1.662.354-2.133 1.11-.323.514-.338 1.075-.338 1.652v3.857c0 .412-.032.846.015 1.259.085.714.456 1.344 1.064 1.735.466.302.984.36 1.524.36l-.794-.793v4.899c0 .64.058 1.249.556 1.73.598.582 1.38.508 2.143.508h1.026c.27 0 .54.01.804-.053.91-.217 1.386-1.037 1.386-1.92V39.93 36.34l-.793.793c.46 0 .889-.042 1.312-.243.47-.228.868-.635 1.08-1.117.216-.486.216-.968.216-1.486V30.55v-1.084c0-.413-.365-.815-.793-.794-.44.032-.805.36-.805.804zM19.815 23.206c0 .074-.005.148-.01.223 0 .037-.033.148 0 .005-.027.116-.048.233-.085.344l-.048.132c.053-.138.01-.026-.005 0-.07.122-.133.238-.212.355.09-.133-.085.095-.116.127-.074.074-.149.142-.228.206.122-.095 0 0-.032.016-.047.032-.095.063-.148.09-.042.02-.084.042-.121.063-.154.085.09-.021-.07.027-.11.037-.221.068-.338.095-.148.037-.037.01 0 .005l-.18.016c-.11.005-.222 0-.328-.005-.227-.01.095.02-.037-.006-.08-.015-.164-.037-.243-.058-.053-.016-.28-.106-.138-.042-.106-.048-.206-.1-.301-.164-.037-.027-.074-.053-.117-.08.143.101-.037-.031-.053-.047-.084-.08-.164-.159-.238-.243-.143-.16.048.079-.021-.032l-.095-.143c-.021-.037-.048-.08-.069-.122 0 .006-.095-.2-.048-.095.048.106-.037-.106-.031-.1-.016-.043-.027-.09-.043-.138-.016-.058-.026-.116-.037-.175-.01-.058-.01-.047 0 .032-.005-.037-.005-.074-.01-.106-.01-.11-.01-.222 0-.328 0 .005.031-.227.01-.11-.02.115.027-.112.027-.107.026-.1.058-.2.09-.301.042-.122-.09.153.016-.032.031-.058.063-.122.1-.18.021-.037.053-.08.074-.116.106-.186-.1.1.042-.059.064-.068.122-.137.191-.2.048-.048.1-.096.153-.138-.026.021-.116.074.006 0 .11-.064.217-.132.328-.19.116-.059-.175.052.037-.017.042-.015.09-.031.132-.042.058-.016.111-.032.17-.042.042-.01.195-.032.036-.016.112-.016.217-.016.328-.016.064 0 .122.005.186.01.169.011-.106-.031.074.011.116.027.227.058.338.095.207.064-.121-.074.07.027.057.032.12.063.179.1.037.022.08.053.116.075.154.09-.063-.07.059.042.1.095.195.19.29.29.022.027.085.123.006 0 .037.06.08.112.111.175.032.048.053.101.085.154l.047.095c-.031-.074-.031-.08-.016-.026.043.121.08.243.106.37.037.148.01.037.006 0 0 .1.005.196.005.296.005.413.36.815.793.794.424-.021.8-.35.794-.794-.021-1.418-.91-2.645-2.243-3.121-1.244-.445-2.736-.022-3.566.994-.879 1.074-1.043 2.604-.323 3.81.72 1.2 2.111 1.794 3.481 1.545 1.54-.28 2.63-1.693 2.651-3.228.005-.412-.37-.814-.794-.793-.433.016-.788.349-.793.793zM20.27 29.688c.518 2.17 1.069 4.338 1.56 6.513 0 .01.006.021.006.032l-.005-.069c.005.048.005.095 0 .143.016-.095.016-.095 0-.005-.01.026-.096.222-.016.074-.016.026-.138.217-.095.158.068-.084-.09.09-.085.08l-.111.095c.063-.053.058-.048-.021.005-.064.032-.127.074-.196.106.148-.063-.074.01-.085.016-.196.063.132.01-.074.016h-.619c-.47 0-.74.365-.794.794-.095.74-.19 1.481-.29 2.222-.059.46-.122.92-.18 1.38-.016.122-.037.244-.048.371 0 .016-.005.032-.005.048-.006.053-.032.127.005 0-.01.031-.01.074-.027.1-.063.1.064-.1-.005 0-.084.127-.005.048-.016.032.006.005-.143.122.006.01-.027.022-.059.038-.085.053-.095.07.1-.063 0 .006-.027.016-.069.016-.1.026.132-.042-.011-.005-.07-.005h-1.629c-.032 0-.201-.01-.116 0 .084.016-.186-.095-.032-.01-.037-.022-.08-.043-.117-.075.101.074.006-.005.006-.01-.006.01.084.1.02.026-.015-.016-.084-.143-.041-.053.042.09-.016-.032-.011-.032-.016-.079-.021-.09-.01-.031.005.047.005.047.005 0-.006-.074-.016-.148-.027-.223l-.158-1.227c-.112-.868-.228-1.735-.34-2.608-.052-.424-.317-.794-.793-.794h-.508c-.047 0-.227-.016-.143 0 .122.021-.105-.027-.1-.027-.048-.01-.09-.026-.138-.042.143.048-.084-.053-.132-.08-.185-.095.053.059-.042-.02-.043-.037-.085-.08-.127-.122-.027-.021-.085-.117-.006 0-.037-.058-.074-.117-.105-.18.079.164-.016-.19 0 .005-.006-.047-.006-.095-.006-.143 0 .022-.037.164 0-.01.006-.016.011-.037.011-.053.026-.111.053-.217.08-.328.253-1.069.513-2.132.767-3.201.227-.942.45-1.884.677-2.826.02-.095.042-.19.069-.285.026-.096.058-.186.095-.28-.058.142.069-.128.09-.16.031-.047.058-.095.095-.142-.021.031-.1.1 0 .005.032-.026.063-.064.09-.095.111-.122-.106.042.042-.032l.111-.064c-.143.08-.02.016.022-.005.042-.016.19-.037.02-.016.048-.005.096-.005.144-.005h2.883c.19 0-.116-.048.058.01l.122.038c-.143-.027-.026-.01.037.026.037.021.069.042.106.069-.148-.106-.005.005.026.037.032.032.059.063.085.095-.111-.137.005.016.026.053.032.048.053.1.08.148.016.032.032.064.042.095-.032-.068-.032-.079-.016-.026.07.132.106.265.138.397.095.418.577.666.979.555.428-.116.65-.555.555-.978-.264-1.138-1.053-2.08-2.285-2.106-.466-.01-.937 0-1.408 0-.47 0-.936-.01-1.407 0-1.228.026-2.006.984-2.286 2.106-.508 2.02-.974 4.058-1.455 6.084-.148.625-.26 1.217.053 1.83.29.578.878 1 1.492 1.175.386.106.783.085 1.175.085l-.794-.793c.106.82.212 1.634.317 2.455l.175 1.354.032.286c.053.571.296 1.053.762 1.397.513.38 1.121.338 1.72.338.48 0 1.01.058 1.48-.042.498-.106.948-.445 1.196-.894.164-.297.196-.593.233-.921.037-.365.095-.73.143-1.095.127-.958.249-1.916.376-2.878l-.794.793c.45 0 .9.021 1.323-.143.698-.264 1.323-.825 1.502-1.571.138-.561-.031-1.085-.164-1.624-.36-1.508-.72-3.016-1.084-4.524l-.318-1.318c-.1-.418-.571-.666-.978-.555-.413.121-.64.566-.54.984zM33.106 23.206c0 .074-.005.148-.01.223 0 .037-.033.148 0 .005-.027.116-.048.233-.085.344l-.048.132c.053-.138.01-.026-.005 0-.07.122-.133.238-.212.355.09-.133-.085.095-.116.127-.074.074-.149.142-.228.206.122-.095 0 0-.032.016-.047.032-.095.063-.148.09-.042.02-.084.042-.121.063-.154.085.09-.021-.07.027-.11.037-.221.068-.338.095-.148.037-.037.01 0 .005l-.18.016c-.11.005-.222 0-.328-.005-.227-.01.095.02-.037-.006-.08-.015-.164-.037-.243-.058-.053-.016-.28-.106-.138-.042-.106-.048-.206-.1-.301-.164-.037-.027-.074-.053-.117-.08.143.101-.037-.031-.053-.047-.084-.08-.164-.159-.238-.243-.143-.16.048.079-.021-.032l-.095-.143c-.021-.037-.048-.08-.069-.122 0 .006-.095-.2-.048-.095.048.106-.037-.106-.031-.1-.016-.043-.027-.09-.043-.138-.016-.058-.026-.116-.037-.175-.01-.058-.01-.047 0 .032-.005-.037-.005-.074-.01-.106-.01-.11-.01-.222 0-.328 0 .005.031-.227.01-.11-.02.115.027-.112.027-.107.026-.1.058-.2.09-.301.042-.122-.09.153.016-.032.031-.058.063-.122.1-.18.021-.037.053-.08.074-.116.106-.186-.1.1.042-.059.064-.068.122-.137.191-.2.048-.048.1-.096.153-.138-.026.021-.116.074.006 0 .11-.064.217-.132.328-.19.116-.059-.175.052.037-.017.042-.015.09-.031.132-.042.058-.016.111-.032.17-.042.042-.01.195-.032.036-.016.112-.016.217-.016.328-.016.064 0 .122.005.186.01.169.011-.106-.031.074.011.116.027.227.058.338.095.207.064-.121-.074.07.027.057.032.12.063.179.1.037.022.08.053.116.075.154.09-.063-.07.059.042.1.095.195.19.29.29.022.027.085.123.006 0 .037.06.08.112.111.175.032.048.053.101.085.154l.047.095c-.031-.074-.031-.08-.016-.026.043.121.08.243.106.37.037.148.01.037.006 0 .005.1.005.196.005.296.005.413.36.815.793.794.424-.021.8-.35.794-.794-.021-1.418-.91-2.645-2.243-3.121-1.244-.445-2.736-.022-3.566.994-.879 1.074-1.043 2.604-.323 3.81.72 1.2 2.111 1.794 3.481 1.545 1.54-.28 2.63-1.693 2.651-3.228.005-.412-.37-.814-.794-.793-.433.016-.783.349-.793.793zM34.577 29.476c0 1.778.031 3.556 0 5.328v.053c0 .048-.032.196 0 .042-.01.059-.027.117-.043.17-.031.121.09-.148-.01.037-.032.058-.069.122-.106.18.021-.032.095-.096-.005 0-.048.047-.096.1-.148.143.11-.09.02-.016-.006 0-.063.031-.116.068-.185.1.185-.08-.286.042-.074.021-.143.016-.291.006-.434.006-.428 0-.794.365-.794.793V41.751c.016-.095.011-.095-.01-.005-.005.021-.016.042-.021.064.037-.085.031-.085-.01-.006-.006.01-.011.021-.022.027-.032.047-.026.037.021-.027l-.047.048c.063-.042.074-.053.026-.021-.026.031-.175.084-.021.026-.042.016-.09.027-.132.037.142-.037-.053-.005-.106-.005h-2.164c-.032 0-.154-.01-.064 0 .117.016-.095-.032-.1-.032.18.069 0 0 .005-.01-.021-.011-.037-.027-.058-.037.074.052.074.052.005-.011.005.01.01.021.021.026.032.048.027.037-.02-.026-.012.005-.054-.111-.012.005-.015-.037-.042-.238-.031-.063 0-.027-.006-.053 0-.085.005-.116 0-.233 0-.344v-1.63-3.343c0-.429-.365-.794-.794-.794h-.286c.006 0-.227-.021-.11-.005.116.02-.107-.032-.107-.032-.026-.005-.148-.053-.005.005-.063-.026-.122-.069-.185-.1-.122-.064-.037-.027-.005 0-.043-.037-.085-.08-.127-.117-.032-.031-.111-.148-.027-.026-.026-.037-.053-.08-.074-.117-.021-.037-.047-.079-.063-.121.063.143.005-.006 0-.043-.01-.042-.032-.195-.016-.037-.005-.047-.005-.095-.005-.148-.006-.28 0-.555 0-.836v-3.635c0-.29-.006-.582 0-.873 0-.031.037-.243 0-.079.01-.053.09-.291.026-.143.021-.053.053-.1.08-.153.015-.037.11-.154.015-.037.032-.037.058-.07.095-.1.022-.022.186-.144.053-.054.037-.026.08-.053.117-.074 0 0 .2-.09.095-.048-.095.038.312-.052.106-.031.063-.006.127-.006.19-.006 1.037-.005 2.074 0 3.106 0H33.931c.222 0-.084-.026.037.006.021.005.228.063.138.031-.106-.037.095.048.095.048.032.021.19.138.064.032.037.032.068.058.1.095.021.021.143.185.053.053.026.037.053.08.074.116.027.053.074.19.037.064l.048.17c.01.057.01.047 0-.033-.006.064 0 .112 0 .16.01.412.36.814.793.793.424-.021.805-.35.794-.794-.032-1.275-1.037-2.286-2.317-2.317-.355-.006-.715 0-1.07 0h-3.671c-.868 0-1.662.354-2.132 1.11-.323.514-.34 1.075-.34 1.652v3.857c0 .412-.03.846.017 1.259.084.714.455 1.344 1.063 1.735.466.302.984.36 1.524.36l-.794-.793v4.899c0 .64.059 1.249.556 1.73.598.582 1.381.508 2.143.508h1.026c.27 0 .54.01.805-.053.91-.217 1.386-1.037 1.386-1.92V39.93 36.34l-.794.793c.46 0 .889-.042 1.312-.243.471-.228.868-.635 1.08-1.117.217-.486.217-.968.217-1.486V30.55v-1.084c0-.413-.365-.815-.794-.794-.44.032-.804.36-.804.804zM46.402 23.206c0 .074-.005.148-.01.223 0 .037-.032.148 0 .005-.027.116-.048.233-.085.344l-.048.132c.053-.138.01-.026-.005 0-.069.122-.132.238-.212.355.09-.133-.084.095-.116.127-.074.074-.148.142-.228.206.122-.095 0 0-.031.016-.048.032-.096.063-.148.09-.043.02-.085.042-.122.063-.154.085.09-.021-.069.027-.111.037-.222.068-.339.095-.148.037-.037.01 0 .005l-.18.016c-.11.005-.222 0-.328-.005-.227-.01.096.02-.037-.006-.079-.015-.164-.037-.243-.058-.053-.016-.28-.106-.138-.042-.105-.048-.206-.1-.301-.164-.037-.027-.074-.053-.116-.08.142.101-.038-.031-.053-.047-.085-.08-.164-.159-.239-.243-.142-.16.048.079-.02-.032l-.096-.143c-.021-.037-.048-.08-.069-.122 0 .006-.095-.2-.047-.095.047.106-.037-.106-.032-.1-.016-.043-.027-.09-.042-.138-.016-.058-.027-.116-.037-.175-.011-.058-.011-.047 0 .032-.006-.037-.006-.074-.011-.106-.01-.11-.01-.222 0-.328 0 .005.032-.227.01-.11-.02.115.027-.112.027-.107.026-.1.058-.2.09-.301.042-.122-.09.153.016-.032.032-.058.063-.122.1-.18.022-.037.053-.08.074-.116.106-.186-.1.1.043-.059.063-.068.121-.137.19-.2.048-.048.1-.096.154-.138-.027.021-.117.074.005 0 .111-.064.217-.132.328-.19.116-.059-.175.052.037-.017.042-.015.09-.031.132-.042.059-.016.111-.032.17-.042.042-.01.195-.032.037-.016.11-.016.217-.016.328-.016.063 0 .121.005.185.01.17.011-.106-.031.074.011.116.027.228.058.339.095.206.064-.122-.074.068.027.059.032.122.063.18.1.037.022.08.053.117.075.153.09-.064-.07.058.042.1.095.196.19.29.29.022.027.086.123.006 0 .037.06.08.112.111.175.032.048.053.101.085.154l.048.095c-.032-.074-.032-.08-.016-.026.042.121.08.243.106.37.037.148.01.037.005 0 0 .1.005.196.005.296.005.413.36.815.794.794.423-.021.799-.35.793-.794-.02-1.418-.91-2.645-2.243-3.121-1.243-.445-2.735-.022-3.566.994-.878 1.074-1.042 2.604-.323 3.81.72 1.2 2.111 1.794 3.482 1.545 1.54-.28 2.63-1.693 2.65-3.228.006-.412-.37-.814-.793-.793-.434.016-.789.349-.794.793zM46.857 29.688c.519 2.17 1.069 4.338 1.561 6.513 0 .01.005.021.005.032l-.005-.069c.005.048.005.095 0 .143.016-.095.016-.095 0-.005-.01.026-.095.222-.016.074-.016.026-.137.217-.095.158.069-.084-.09.09-.085.08l-.11.095c.063-.053.057-.048-.022.005-.064.032-.127.074-.196.106.148-.063-.074.01-.084.016-.196.063.132.01-.075.016h-.619c-.47 0-.74.365-.793.794-.095.74-.19 1.481-.291 2.222-.058.46-.122.92-.18 1.38-.016.122-.037.244-.048.371 0 .016-.005.032-.005.048-.005.053-.032.127.005 0-.01.031-.01.074-.026.1-.064.1.063-.1-.006 0-.084.127-.005.048-.015.032.005.005-.143.122.005.01-.027.022-.058.038-.085.053-.095.07.1-.063 0 .006-.026.016-.069.016-.1.026.132-.042-.01-.005-.07-.005h-1.629c-.031 0-.2-.01-.116 0 .085.016-.185-.095-.032-.01-.037-.022-.08-.043-.116-.075.1.074.005-.005.005-.01-.005.01.085.1.021.026-.016-.016-.084-.143-.042-.053s-.016-.032-.01-.032c-.017-.079-.022-.09-.011-.031.005.047.005.047.005 0-.005-.074-.016-.148-.026-.223l-.16-1.227c-.11-.868-.227-1.735-.338-2.608-.053-.424-.317-.794-.793-.794h-.508c-.048 0-.228-.016-.143 0 .121.021-.106-.027-.1-.027-.048-.01-.09-.026-.138-.042.143.048-.085-.053-.133-.08-.185-.095.053.059-.042-.02-.042-.037-.085-.08-.127-.122-.026-.021-.085-.117-.005 0-.037-.058-.074-.117-.106-.18.08.164-.016-.19 0 .005-.005-.047-.005-.095-.005-.143 0 .022-.037.164 0-.01.005-.016.01-.037.01-.053l.08-.328c.254-1.069.513-2.132.767-3.201.227-.942.45-1.884.677-2.826.021-.095.042-.19.069-.285.026-.096.058-.186.095-.28-.058.142.069-.128.09-.16.032-.047.058-.095.095-.142-.02.031-.1.1 0 .005.032-.026.064-.064.09-.095.111-.122-.106.042.043-.032l.11-.064c-.142.08-.02.016.022-.005.042-.016.19-.037.021-.016.048-.005.095-.005.143-.005H46.153c.19 0-.116-.048.059.01.031.011.084.027.121.038-.143-.027-.026-.01.037.026.037.021.07.042.106.069-.148-.106-.005.005.027.037.031.032.058.063.084.095-.11-.137.006.016.027.053.032.048.053.1.08.148.015.032.03.064.041.095-.031-.068-.031-.079-.015-.026.068.132.105.265.137.397.095.418.577.666.979.555.429-.116.65-.555.556-.978-.265-1.138-1.053-2.08-2.286-2.106-.466-.01-.937 0-1.408 0-.465 0-.936-.01-1.407 0-1.228.026-2.005.984-2.286 2.106-.508 2.02-.973 4.058-1.455 6.084-.148.625-.259 1.217.053 1.83.291.578.878 1 1.492 1.175.386.106.783.085 1.175.085l-.794-.793.318 2.455.174 1.354.032.286c.053.571.296 1.053.762 1.397.513.38 1.122.338 1.72.338.481 0 1.01.058 1.481-.042.497-.106.947-.445 1.196-.894.164-.297.195-.593.233-.921.037-.365.095-.73.142-1.095.127-.958.25-1.916.376-2.878l-.794.793c.45 0 .9.021 1.323-.143.699-.264 1.323-.825 1.503-1.571.137-.561-.032-1.085-.164-1.624-.36-1.508-.72-3.016-1.085-4.524l-.317-1.318c-.1-.418-.572-.666-.98-.555-.412.121-.64.566-.539.984zM9.81 16.328c0-.074.005-.148.01-.222.01-.095.01-.095 0-.005.005-.038.01-.07.021-.106.016-.07.032-.138.053-.207.01-.037.106-.259.032-.105.058-.127.132-.244.201-.36.106-.175-.095.09.042-.058l.138-.154c.047-.048.1-.095.153-.137.133-.117-.079.042.059-.043l.174-.11c.021-.011.238-.117.154-.08-.085.037.11-.037.132-.043.08-.026.159-.042.238-.063.164-.042-.111-.005.074-.01.074-.006.148-.011.222-.011.074 0 .148.005.222.01.223.016-.137-.037.075.01.137.033.27.07.407.123-.159-.064.063.037.095.053.058.031.117.068.18.105.027.022.058.037.085.059-.058-.048-.07-.053-.027-.022.064.053.122.106.18.16.048.047.095.1.138.153.11.121-.048-.096.042.058.069.121.143.233.201.36-.069-.154.01.037.021.068.021.07.043.138.058.207.011.047.022.095.027.137-.01-.08-.01-.09-.005-.032.01.085.01.17.01.254.006.413.36.815.794.794.423-.021.799-.35.794-.794-.027-1.793-1.482-3.296-3.297-3.296-1.81 0-3.27 1.503-3.296 3.296-.005.413.37.815.794.794.444-.01.793-.339.799-.783zM23.106 16.328c0-.074.005-.148.01-.222.011-.095.011-.095 0-.005.006-.038.011-.07.022-.106.015-.07.031-.138.052-.207.011-.037.106-.259.032-.105.058-.127.132-.244.201-.36.106-.175-.095.09.043-.058l.137-.154c.048-.048.1-.095.154-.137.132-.117-.08.042.058-.043l.174-.11c.022-.011.239-.117.154-.08-.085.037.111-.037.132-.043.08-.026.159-.042.238-.063.164-.042-.11-.005.074-.01.074-.006.148-.011.223-.011.074 0 .148.005.222.01.222.016-.138-.037.074.01.137.033.27.07.407.123-.159-.064.064.037.095.053.059.031.117.068.18.105.027.022.059.037.085.059-.058-.048-.069-.053-.026-.022.063.053.121.106.18.16.047.047.095.1.137.153.111.121-.048-.096.042.058.07.121.143.233.201.36-.068-.154.011.037.022.068.02.07.042.138.058.207.01.047.02.095.026.137-.01-.08-.01-.09-.005-.032.01.085.01.17.01.254.006.413.36.815.794.794.423-.021.8-.35.794-.794-.027-1.793-1.482-3.296-3.296-3.296-1.81 0-3.27 1.503-3.297 3.296-.005.413.37.815.794.794.439-.01.794-.339.799-.783zM36.397 16.328c0-.074.005-.148.01-.222.011-.095.011-.095 0-.005.006-.038.011-.07.022-.106.015-.07.031-.138.052-.207.011-.037.106-.259.032-.105.058-.127.133-.244.201-.36.106-.175-.095.09.043-.058l.137-.154c.048-.048.1-.095.154-.137.132-.117-.08.042.058-.043l.174-.11c.022-.011.239-.117.154-.08-.085.037.111-.037.132-.043.08-.026.159-.042.238-.063.164-.042-.11-.005.074-.01.074-.006.148-.011.223-.011.074 0 .148.005.222.01.222.016-.138-.037.074.01.137.033.27.07.407.123-.158-.064.064.037.095.053.059.031.117.068.18.105.027.022.059.037.085.059-.058-.048-.069-.053-.026-.022.063.053.121.106.18.16.047.047.095.1.137.153.111.121-.048-.096.042.058.07.121.143.233.201.36-.068-.154.011.037.022.068.02.07.042.138.058.207.01.047.02.095.026.137-.01-.08-.01-.09-.005-.032.01.085.01.17.01.254.006.413.36.815.794.794.423-.021.8-.35.794-.794-.027-1.793-1.482-3.296-3.296-3.296-1.81 0-3.27 1.503-3.297 3.296-.005.413.37.815.794.794.444-.01.794-.339.799-.783zM16.46 9.63c0-.074.006-.149.01-.223.011-.095.011-.095 0-.005.006-.037.011-.069.022-.106.016-.068.032-.137.053-.206.01-.037.106-.26.032-.106.058-.127.132-.243.2-.36.107-.174-.094.09.043-.058l.138-.153c.047-.048.1-.096.153-.138.132-.116-.08.042.058-.042l.175-.111c.021-.01.238-.117.153-.08-.084.037.111-.037.133-.042.079-.026.158-.042.238-.063.164-.043-.111-.006.074-.011.074-.005.148-.01.222-.01.074 0 .148.005.222.01.222.016-.137-.037.074.01.138.032.27.07.408.122-.159-.063.063.037.095.053.058.032.116.069.18.106.026.021.058.037.085.058-.059-.047-.07-.053-.027-.021.064.053.122.106.18.159.048.047.095.1.138.153.11.122-.048-.095.042.058.069.122.143.233.2.36-.068-.153.011.037.022.069.021.069.042.137.058.206.01.048.021.095.027.138-.01-.08-.01-.09-.006-.032.011.085.011.17.011.254.005.413.36.815.794.794.423-.021.799-.35.793-.794-.026-1.794-1.481-3.296-3.296-3.296-1.81 0-3.27 1.502-3.296 3.296-.006.413.37.815.793.794.44-.01.789-.339.8-.783zM29.751 9.63c0-.074.006-.149.01-.223.011-.095.011-.095 0-.005.006-.037.011-.069.022-.106.016-.068.032-.137.053-.206.01-.037.106-.26.032-.106.058-.127.132-.243.2-.36.107-.174-.094.09.043-.058l.138-.153c.047-.048.1-.096.153-.138.132-.116-.08.042.058-.042l.175-.111c.021-.01.238-.117.153-.08-.084.037.111-.037.133-.042.079-.026.158-.042.238-.063.164-.043-.111-.006.074-.011.074-.005.148-.01.222-.01.074 0 .148.005.222.01.222.016-.137-.037.074.01.138.032.27.07.408.122-.159-.063.063.037.095.053.058.032.116.069.18.106.026.021.058.037.085.058-.059-.047-.07-.053-.027-.021.064.053.122.106.18.159.048.047.095.1.138.153.11.122-.048-.095.042.058.069.122.143.233.2.36-.068-.153.011.037.022.069.021.069.042.137.058.206.01.048.021.095.027.138-.01-.08-.01-.09-.006-.032.011.085.011.17.011.254.005.413.36.815.794.794.423-.021.799-.35.793-.794-.026-1.794-1.481-3.296-3.296-3.296-1.81 0-3.27 1.502-3.296 3.296-.006.413.37.815.793.794.44-.01.794-.339.8-.783zM23.106 3.307c0-.074.005-.148.01-.222.011-.096.011-.096 0-.006.006-.037.011-.068.022-.105.015-.07.031-.138.052-.207.011-.037.106-.26.032-.106.058-.127.132-.243.201-.36.106-.174-.095.09.043-.058l.137-.153c.048-.048.1-.095.154-.138.132-.116-.08.043.058-.042l.174-.111c.022-.01.239-.116.154-.08-.085.038.111-.036.132-.042.08-.026.159-.042.238-.063.164-.043-.11-.006.074-.01.074-.006.148-.011.223-.011.074 0 .148.005.222.01.222.016-.138-.037.074.01.137.033.27.07.407.122-.159-.063.064.037.095.053.059.032.117.07.18.106.027.021.059.037.085.058-.058-.047-.069-.053-.026-.02.063.052.121.105.18.158.047.048.095.1.137.153.111.122-.048-.095.042.059.07.121.143.232.201.36-.068-.154.011.036.022.068.02.069.042.138.058.207.01.047.02.095.026.137-.01-.08-.01-.09-.005-.032.01.085.01.17.01.254.006.413.36.815.794.794.423-.021.8-.35.794-.794C28.079 1.503 26.624 0 24.81 0 23 0 21.54 1.503 21.513 3.296c-.005.413.37.815.794.794.439-.005.794-.339.799-.783z" transform="translate(-249 -262) translate(249 262)"/>
            </g>
        </g>
    </g>
</svg>
