{
  "categorieTerritoire": "REGION",
  "codeOtexMajoritaire5Postes": "SANS_OTEX_MAJORITAIRE",
  "densitePopulationHabParKm2": 79.67,
  "idTerritoire": "occitanie",
  "idTerritoireParcel": "11",
  "nbCommunes": 4454,
  "nomTerritoire": "Occitanie [Fixture]",
  "population": 5845102,
  "profil": "DEFAUT",
  "ugbParHa": 1,
  "cheptels": [
    {
      "code": "BOVINS",
      "estEstime": false,
      "tetes": 1493637,
      "ugb": 1284528
    },
    {
      "code": "PORCINS",
      "estEstime": false,
      "tetes": 437058,
      "ugb": 113635
    },
    {
      "code": "OVINS",
      "estEstime": false,
      "tetes": 2210259,
      "ugb": 331539
    },
    {
      "code": "CAPRINS",
      "estEstime": false,
      "tetes": 177780,
      "ugb": 42667
    },
    {
      "code": "VOLAILLES",
      "estEstime": false,
      "tetes": 12937150,
      "ugb": 168183
    }
  ],
  "boundingBoxTerritoire": {
    "latitudeMax": 45.047,
    "latitudeMin": 42.333,
    "longitudeMax": 4.846,
    "longitudeMin": -0.327
  },
  "climat": {
    "analoguesClimatiques": {
    }
  },
  "consommation": {
    "tauxPauvrete60Pourcent": 16.8,
    "codeNiveauRisquePrecariteAlimentaire": null
  },
  "eau": {
    "note": 4.83,
    "arretesSecheresse": {
      "note": 7.7,
      "tauxImpactArretesSecheressePourcent": 23,
      "indicateursParAnneesMois": [
        {
          "anneeMois": "2012-04-01",
          "partTerritoireEnArretePourcent": 8
        },
        {
          "anneeMois": "2012-05-01",
          "partTerritoireEnArretePourcent": 11
        },
        {
          "anneeMois": "2012-06-01",
          "partTerritoireEnArretePourcent": 1
        },
        {
          "anneeMois": "2012-07-01",
          "partTerritoireEnArretePourcent": 14
        },
        {
          "anneeMois": "2012-08-01",
          "partTerritoireEnArretePourcent": 35
        },
        {
          "anneeMois": "2012-09-01",
          "partTerritoireEnArretePourcent": 49
        },
        {
          "anneeMois": "2012-10-01",
          "partTerritoireEnArretePourcent": 48
        },
        {
          "anneeMois": "2012-11-01",
          "partTerritoireEnArretePourcent": 3
        },
        {
          "anneeMois": "2013-08-01",
          "partTerritoireEnArretePourcent": 8
        },
        {
          "anneeMois": "2013-09-01",
          "partTerritoireEnArretePourcent": 14
        },
        {
          "anneeMois": "2013-10-01",
          "partTerritoireEnArretePourcent": 14
        },
        {
          "anneeMois": "2014-05-01",
          "partTerritoireEnArretePourcent": 1
        },
        {
          "anneeMois": "2014-06-01",
          "partTerritoireEnArretePourcent": 12
        },
        {
          "anneeMois": "2014-07-01",
          "partTerritoireEnArretePourcent": 14
        },
        {
          "anneeMois": "2014-08-01",
          "partTerritoireEnArretePourcent": 15
        },
        {
          "anneeMois": "2014-09-01",
          "partTerritoireEnArretePourcent": 16
        },
        {
          "anneeMois": "2014-10-01",
          "partTerritoireEnArretePourcent": 11
        },
        {
          "anneeMois": "2014-11-01",
          "partTerritoireEnArretePourcent": 3
        },
        {
          "anneeMois": "2015-06-01",
          "partTerritoireEnArretePourcent": 5
        },
        {
          "anneeMois": "2015-07-01",
          "partTerritoireEnArretePourcent": 22
        },
        {
          "anneeMois": "2015-08-01",
          "partTerritoireEnArretePourcent": 37
        },
        {
          "anneeMois": "2015-09-01",
          "partTerritoireEnArretePourcent": 24
        },
        {
          "anneeMois": "2015-10-01",
          "partTerritoireEnArretePourcent": 16
        },
        {
          "anneeMois": "2015-11-01",
          "partTerritoireEnArretePourcent": 6
        },
        {
          "anneeMois": "2015-12-01",
          "partTerritoireEnArretePourcent": 8
        },
        {
          "anneeMois": "2016-07-01",
          "partTerritoireEnArretePourcent": 6
        },
        {
          "anneeMois": "2016-08-01",
          "partTerritoireEnArretePourcent": 22
        },
        {
          "anneeMois": "2016-09-01",
          "partTerritoireEnArretePourcent": 36
        },
        {
          "anneeMois": "2016-10-01",
          "partTerritoireEnArretePourcent": 33
        },
        {
          "anneeMois": "2016-11-01",
          "partTerritoireEnArretePourcent": 11
        },
        {
          "anneeMois": "2016-12-01",
          "partTerritoireEnArretePourcent": 4
        },
        {
          "anneeMois": "2017-06-01",
          "partTerritoireEnArretePourcent": 7
        },
        {
          "anneeMois": "2017-07-01",
          "partTerritoireEnArretePourcent": 25
        },
        {
          "anneeMois": "2017-08-01",
          "partTerritoireEnArretePourcent": 45
        },
        {
          "anneeMois": "2017-09-01",
          "partTerritoireEnArretePourcent": 52
        },
        {
          "anneeMois": "2017-10-01",
          "partTerritoireEnArretePourcent": 48
        },
        {
          "anneeMois": "2017-11-01",
          "partTerritoireEnArretePourcent": 25
        },
        {
          "anneeMois": "2017-12-01",
          "partTerritoireEnArretePourcent": 14
        },
        {
          "anneeMois": "2018-01-01",
          "partTerritoireEnArretePourcent": 3
        },
        {
          "anneeMois": "2018-02-01",
          "partTerritoireEnArretePourcent": 1
        },
        {
          "anneeMois": "2018-06-01",
          "partTerritoireEnArretePourcent": 4
        },
        {
          "anneeMois": "2018-07-01",
          "partTerritoireEnArretePourcent": 6
        },
        {
          "anneeMois": "2018-08-01",
          "partTerritoireEnArretePourcent": 14
        },
        {
          "anneeMois": "2018-09-01",
          "partTerritoireEnArretePourcent": 20
        },
        {
          "anneeMois": "2018-10-01",
          "partTerritoireEnArretePourcent": 23
        },
        {
          "anneeMois": "2019-04-01",
          "partTerritoireEnArretePourcent": 2
        },
        {
          "anneeMois": "2019-05-01",
          "partTerritoireEnArretePourcent": 3
        },
        {
          "anneeMois": "2019-06-01",
          "partTerritoireEnArretePourcent": 3
        },
        {
          "anneeMois": "2019-07-01",
          "partTerritoireEnArretePourcent": 25
        },
        {
          "anneeMois": "2019-08-01",
          "partTerritoireEnArretePourcent": 51
        },
        {
          "anneeMois": "2019-09-01",
          "partTerritoireEnArretePourcent": 61
        },
        {
          "anneeMois": "2019-10-01",
          "partTerritoireEnArretePourcent": 55
        },
        {
          "anneeMois": "2019-11-01",
          "partTerritoireEnArretePourcent": 1
        },
        {
          "anneeMois": "2020-06-01",
          "partTerritoireEnArretePourcent": 4
        },
        {
          "anneeMois": "2020-07-01",
          "partTerritoireEnArretePourcent": 13
        },
        {
          "anneeMois": "2020-08-01",
          "partTerritoireEnArretePourcent": 27
        },
        {
          "anneeMois": "2020-09-01",
          "partTerritoireEnArretePourcent": 35
        },
        {
          "anneeMois": "2020-10-01",
          "partTerritoireEnArretePourcent": 26
        },
        {
          "anneeMois": "2021-06-01",
          "partTerritoireEnArretePourcent": 4
        },
        {
          "anneeMois": "2021-07-01",
          "partTerritoireEnArretePourcent": 9
        },
        {
          "anneeMois": "2021-08-01",
          "partTerritoireEnArretePourcent": 27
        },
        {
          "anneeMois": "2021-09-01",
          "partTerritoireEnArretePourcent": 50
        },
        {
          "anneeMois": "2021-10-01",
          "partTerritoireEnArretePourcent": 23
        },
        {
          "anneeMois": "2021-11-01",
          "partTerritoireEnArretePourcent": 2
        },
        {
          "anneeMois": "2021-12-01",
          "partTerritoireEnArretePourcent": 1
        },
        {
          "anneeMois": "2022-01-01",
          "partTerritoireEnArretePourcent": 1
        },
        {
          "anneeMois": "2022-06-01",
          "partTerritoireEnArretePourcent": 13
        },
        {
          "anneeMois": "2022-07-01",
          "partTerritoireEnArretePourcent": 47
        },
        {
          "anneeMois": "2022-08-01",
          "partTerritoireEnArretePourcent": 80
        },
        {
          "anneeMois": "2022-09-01",
          "partTerritoireEnArretePourcent": 76
        },
        {
          "anneeMois": "2022-10-01",
          "partTerritoireEnArretePourcent": 70
        },
        {
          "anneeMois": "2022-11-01",
          "partTerritoireEnArretePourcent": 8
        },
        {
          "anneeMois": "2022-12-01",
          "partTerritoireEnArretePourcent": 8
        },
        {
          "anneeMois": "2023-01-01",
          "partTerritoireEnArretePourcent": 7
        }
      ]
    },
    "irrigation": {
      "irrigationM3": 661635034.8,
      "irrigationMM": 46.01,
      "note": 1.95,
      "indicateursParAnnees": [
        {
          "annee": 2012,
          "irrigationM3": 703767236,
          "irrigationMM": 48.94
        },
        {
          "annee": 2013,
          "irrigationM3": 644749667,
          "irrigationMM": 44.83
        },
        {
          "annee": 2014,
          "irrigationM3": 410319110,
          "irrigationMM": 28.53
        },
        {
          "annee": 2015,
          "irrigationM3": 670702782,
          "irrigationMM": 46.64
        },
        {
          "annee": 2016,
          "irrigationM3": 709349451,
          "irrigationMM": 49.32
        },
        {
          "annee": 2017,
          "irrigationM3": 624170397,
          "irrigationMM": 43.4
        },
        {
          "annee": 2018,
          "irrigationM3": 597893010,
          "irrigationMM": 41.57
        },
        {
          "annee": 2019,
          "irrigationM3": 663456044,
          "irrigationMM": 46.13
        },
        {
          "annee": 2020,
          "irrigationM3": 713306272,
          "irrigationMM": 49.6
        }
      ],
      "pratiquesIrrigationParCultures": [
        {
          "categorieCulture": "Cultures industrielles",
          "culture": "Cultures industrielles : autres",
          "sauHa": 50947,
          "sauIrrigueeHa": 20983
        },
        {
          "categorieCulture": "Cultures industrielles",
          "culture": "Cultures industrielles : colza",
          "sauHa": 45280,
          "sauIrrigueeHa": 941
        },
        {
          "categorieCulture": "Cultures industrielles",
          "culture": "Cultures industrielles : tournesol",
          "sauHa": 218560,
          "sauIrrigueeHa": 7417
        },
        {
          "categorieCulture": "Cultures permanentes",
          "culture": "Cultures permanentes (vignes, vergers, autres)",
          "sauHa": 314740,
          "sauIrrigueeHa": 48955
        },
        {
          "categorieCulture": "Céréales",
          "culture": "Céréales : autres",
          "sauHa": 391774,
          "sauIrrigueeHa": 8751
        },
        {
          "categorieCulture": "Céréales",
          "culture": "Céréales : blé tendre",
          "sauHa": 239583,
          "sauIrrigueeHa": 911
        },
        {
          "categorieCulture": "Céréales",
          "culture": "Céréales : maïs grain et semence",
          "sauHa": 163778,
          "sauIrrigueeHa": 129163
        },
        {
          "categorieCulture": "Céréales",
          "culture": "Céréales : riz",
          "sauHa": 2370,
          "sauIrrigueeHa": 2370
        },
        {
          "categorieCulture": "Fourrages",
          "culture": "Fourrages : autres",
          "sauHa": 575568,
          "sauIrrigueeHa": 5175
        },
        {
          "categorieCulture": "Fourrages",
          "culture": "Fourrages : maïs fourrage et ensilage",
          "sauHa": 46654,
          "sauIrrigueeHa": 18070
        },
        {
          "categorieCulture": "Fourrages",
          "culture": "Fourrages : superficies toujours en herbe",
          "sauHa": 984306,
          "sauIrrigueeHa": 3866
        },
        {
          "categorieCulture": "Légumes",
          "culture": "Légumes, pommes de terre, fleurs",
          "sauHa": 22432,
          "sauIrrigueeHa": 15327
        }
      ]
    }
  },
  "energie": {
    "codePostePrincipal": "TRACTEURS",
    "energiePrimaireGJ": 35322963.29,
    "energiePrimaireGJParHa": 9.76,
    "note": 7.62,
    "postes": [
      {
        "code": "ALIMENTATION_ANIMALE",
        "energiePrimaireGJ": 1798558.45,
        "estEnergieDirecte": false
      },
      {
        "code": "BATIMENTS_ELEVAGE",
        "energiePrimaireGJ": 3435557.17,
        "estEnergieDirecte": true,
        "sources": [
          {
            "code": "CARBURANTS",
            "energiePrimaireGJ": 1458923.55
          },
          {
            "code": "ELECTRICITE",
            "energiePrimaireGJ": 1929823.58
          },
          {
            "code": "GAZ",
            "energiePrimaireGJ": 46810.04
          }
        ]
      },
      {
        "code": "ENGRAIS_AZOTES",
        "energiePrimaireGJ": 11456803.64,
        "estEnergieDirecte": false
      },
      {
        "code": "IRRIGATION",
        "energiePrimaireGJ": 2273799.94,
        "estEnergieDirecte": true,
        "sources": [
          {
            "code": "CARBURANTS",
            "energiePrimaireGJ": 162575.57
          },
          {
            "code": "ELECTRICITE",
            "energiePrimaireGJ": 2111224.37
          }
        ]
      },
      {
        "code": "MATERIEL",
        "energiePrimaireGJ": 3895263.12,
        "estEnergieDirecte": false
      },
      {
        "code": "SERRES",
        "energiePrimaireGJ": 699429.55,
        "estEnergieDirecte": true,
        "sources": [
          {
            "code": "BIOMASSE",
            "energiePrimaireGJ": 116458.56
          },
          {
            "code": "ELECTRICITE",
            "energiePrimaireGJ": 50589
          },
          {
            "code": "GAZ",
            "energiePrimaireGJ": 532381.99
          }
        ]
      },
      {
        "code": "TRACTEURS",
        "energiePrimaireGJ": 11763551.43,
        "estEnergieDirecte": true,
        "sources": [
          {
            "code": "CARBURANTS",
            "energiePrimaireGJ": 11763551.43
          }
        ]
      }
    ]
  },
  "intrants": {
    "note": 5.11
  },
  "nbCommunesParOtex": {
    "bovinLait": 8,
    "bovinMixte": 302,
    "bovinViande": 370,
    "fruits": 188,
    "grandesCultures": 621,
    "maraichageHorticulture": 44,
    "nonClassees": 2,
    "nonRenseigne": 0,
    "ovinsCaprinsAutresHerbivores": 711,
    "polyculturePolyelevage": 1332,
    "porcinsVolailles": 112,
    "sansExploitations": 107,
    "viticulture": 657
  },
  "occupationSols": {
    "superficieAgricoleClcHa": 3758814,
    "superficieAgricoleRA2020Ha": 3131115,
    "superficieArtificialiseeClcHa": 307984,
    "superficieNaturelleOuForestiereClcHa": 3269419,
    "superficieTotaleHa": 7336216
  },
  "pesticides": {
    "noduNormalise": 2.66,
    "note": 2.89,
    "indicateursParAnnees": [
      {
        "annee": 2017,
        "noduHa": 8806849.89,
        "noduNormalise": 2.81,
        "quantiteSubstanceAvecDUKg": 4637088.56,
        "quantiteSubstanceSansDUKg": 42103.16
      },
      {
        "annee": 2018,
        "noduHa": 9396044.23,
        "noduNormalise": 3,
        "quantiteSubstanceAvecDUKg": 5000348.77,
        "quantiteSubstanceSansDUKg": 58100
      },
      {
        "annee": 2019,
        "noduHa": 8528226.49,
        "noduNormalise": 2.72,
        "quantiteSubstanceAvecDUKg": 4404977.69,
        "quantiteSubstanceSansDUKg": 72677.11
      },
      {
        "annee": 2020,
        "noduHa": 8341847.77,
        "noduNormalise": 2.66,
        "quantiteSubstanceAvecDUKg": 4274216.96,
        "quantiteSubstanceSansDUKg": 70755.93
      }
    ]
  },
  "politiqueFonciere": {
    "artificialisation5ansHa": 13693.83,
    "evaluationPolitiqueAmenagement": "ARTIF_POSITIVE_ET_NB_MENAGES_EMPLOIS_EN_HAUSSE",
    "evolutionMenagesEmplois5ans": 238823,
    "note": 5,
    "partLogementsVacants2013Pourcent": 8.3,
    "partLogementsVacants2018Pourcent": 8.4,
    "rythmeArtificialisationSauPourcent": 0.53,
    "sauParHabitantM2": 4394
  },
  "populationAgricole": {
    "nbExploitations1988": 156717,
    "nbExploitations2010": 78329,
    "note": 6,
    "partPopulationAgricole1988Pourcent": 6.81,
    "partPopulationAgricole2010Pourcent": 2.55,
    "populationAgricole1988": 308484,
    "populationAgricole2010": 140193,
    "sauHa1988": 3416853,
    "sauHa2010": 3177291,
    "sauMoyenneParExploitationHa1988": 22,
    "sauMoyenneParExploitationHa2010": 41,
    "nbExploitationsParClassesAgesChefExploitation": {
      "de_40_a_49_ans": 20844,
      "de_50_a_59_ans": 25344,
      "moins_40_ans": 12718,
      "plus_60_ans": 19423
    },
    "nbExploitationsParClassesSuperficies": {
      "de_100_a_200_ha": 6680,
      "de_20_a_50_ha": 17877,
      "de_50_a_100_ha": 13196,
      "moins_20_ha": 38902,
      "plus_200_ha": 1674
    },
    "sauHaParClassesSuperficies": {
      "de_100_a_200_ha": 896889,
      "de_20_a_50_ha": 590801,
      "de_50_a_100_ha": 931348,
      "moins_20_ha": 254832,
      "plus_200_ha": 503421
    }
  },
  "pratiquesAgricoles": {
    "partSauBioPourcent": 19.49,
    "indicateurHvn": {
      "indice1": 8,
      "indice2": 3.96,
      "indice3": 3.1,
      "indiceTotal": 15.06
    }
  },
  "production": {
    "indiceHvn": 15.06,
    "note": 8,
    "noteHvn": 5,
    "notePartSauBio": 10,
    "noteTauxAdequationMoyenPondere": 9,
    "partSauBioPourcent": 19.49,
    "tauxAdequationMoyenPonderePourcent": 85.71
  },
  "productionsBesoins": {
    "besoinsAssietteActuelle": {
      "besoinsHa": 2208764.44,
      "tauxAdequationBrutPourcent": 116.29,
      "tauxAdequationMoyenPonderePourcent": 85.71,
      "besoinsParGroupeCulture": [
        {
          "besoinsHa": 406345.35,
          "codeGroupeCulture": "CER",
          "nomGroupeCulture": "Céréales",
          "tauxAdequationBrutPourcent": 188.12,
          "besoinsParCulture": [
            {
              "alimentationAnimale": true,
              "besoinsHa": 282312.17,
              "codeCulture": "BA-AAC",
              "nomCulture": "Alim animale"
            },
            {
              "alimentationAnimale": false,
              "besoinsHa": 124033.18,
              "codeCulture": "BH-AHC",
              "nomCulture": "Alim humaine"
            }
          ]
        },
        {
          "besoinsHa": 39679.12,
          "codeGroupeCulture": "DVC",
          "nomGroupeCulture": "Autres cultures",
          "tauxAdequationBrutPourcent": 573.86,
          "besoinsParCulture": [
            {
              "alimentationAnimale": false,
              "besoinsHa": 23546.94,
              "codeCulture": "BH-BET",
              "nomCulture": "Betterave sucrière"
            },
            {
              "alimentationAnimale": false,
              "besoinsHa": 1455.53,
              "codeCulture": "BH-OLV",
              "nomCulture": "Oliviers"
            },
            {
              "alimentationAnimale": false,
              "besoinsHa": 14676.65,
              "codeCulture": "BH-PDT",
              "nomCulture": "Pommes de terre"
            }
          ]
        },
        {
          "besoinsHa": 46134.17,
          "codeGroupeCulture": "FLC",
          "nomGroupeCulture": "Fruits et légumes",
          "tauxAdequationBrutPourcent": 109.7,
          "besoinsParCulture": [
            {
              "alimentationAnimale": false,
              "besoinsHa": 10297.76,
              "codeCulture": "BH-FCO",
              "nomCulture": "Fruits à coque"
            },
            {
              "alimentationAnimale": false,
              "besoinsHa": 16161.57,
              "codeCulture": "BH-FRU",
              "nomCulture": "Fruits"
            },
            {
              "alimentationAnimale": false,
              "besoinsHa": 19674.84,
              "codeCulture": "BH-LEG",
              "nomCulture": "Légumes"
            }
          ]
        },
        {
          "besoinsHa": 1490335.58,
          "codeGroupeCulture": "FOU",
          "nomGroupeCulture": "Fourrages",
          "tauxAdequationBrutPourcent": 78.82,
          "besoinsParCulture": [
            {
              "alimentationAnimale": true,
              "besoinsHa": 107315.3,
              "codeCulture": "BA-AFO",
              "nomCulture": "Fourrages annuels"
            },
            {
              "alimentationAnimale": true,
              "besoinsHa": 1383020.28,
              "codeCulture": "BA-PRA",
              "nomCulture": "Prairies"
            }
          ]
        },
        {
          "besoinsHa": 226270.22,
          "codeGroupeCulture": "OLP",
          "nomGroupeCulture": "Oléoprotéagineux",
          "tauxAdequationBrutPourcent": 155.13,
          "besoinsParCulture": [
            {
              "alimentationAnimale": true,
              "besoinsHa": 145558.6,
              "codeCulture": "BA-AAO",
              "nomCulture": "Tourteaux"
            },
            {
              "alimentationAnimale": true,
              "besoinsHa": 11915.5,
              "codeCulture": "BA-PRO",
              "nomCulture": "Légumin graines"
            },
            {
              "alimentationAnimale": false,
              "besoinsHa": 68796.11,
              "codeCulture": "BH-AHO",
              "nomCulture": "Alim humaine"
            }
          ]
        }
      ]
    },
    "besoinsAssietteDemitarienne": {
      "besoinsHa": 1354618.13,
      "tauxAdequationBrutPourcent": 189.61,
      "tauxAdequationMoyenPonderePourcent": 97.49,
      "besoinsParGroupeCulture": [
        {
          "besoinsHa": 314802.54,
          "codeGroupeCulture": "CER",
          "nomGroupeCulture": "Céréales",
          "tauxAdequationBrutPourcent": 242.82,
          "besoinsParCulture": [
            {
              "alimentationAnimale": true,
              "besoinsHa": 141156.09,
              "codeCulture": "BA-AAC",
              "nomCulture": "Alim animale"
            },
            {
              "alimentationAnimale": false,
              "besoinsHa": 173646.45,
              "codeCulture": "BH-AHC",
              "nomCulture": "Alim humaine"
            }
          ]
        },
        {
          "besoinsHa": 33052.48,
          "codeGroupeCulture": "DVC",
          "nomGroupeCulture": "Autres cultures",
          "tauxAdequationBrutPourcent": 688.91,
          "besoinsParCulture": [
            {
              "alimentationAnimale": false,
              "besoinsHa": 17660.21,
              "codeCulture": "BH-BET",
              "nomCulture": "Betterave sucrière"
            },
            {
              "alimentationAnimale": false,
              "besoinsHa": 2183.29,
              "codeCulture": "BH-OLV",
              "nomCulture": "Oliviers"
            },
            {
              "alimentationAnimale": false,
              "besoinsHa": 13208.99,
              "codeCulture": "BH-PDT",
              "nomCulture": "Pommes de terre"
            }
          ]
        },
        {
          "besoinsHa": 84647.92,
          "codeGroupeCulture": "FLC",
          "nomGroupeCulture": "Fruits et légumes",
          "tauxAdequationBrutPourcent": 59.79,
          "besoinsParCulture": [
            {
              "alimentationAnimale": false,
              "besoinsHa": 30893.3,
              "codeCulture": "BH-FCO",
              "nomCulture": "Fruits à coque"
            },
            {
              "alimentationAnimale": false,
              "besoinsHa": 24242.34,
              "codeCulture": "BH-FRU",
              "nomCulture": "Fruits"
            },
            {
              "alimentationAnimale": false,
              "besoinsHa": 29512.28,
              "codeCulture": "BH-LEG",
              "nomCulture": "Légumes"
            }
          ]
        },
        {
          "besoinsHa": 745167.79,
          "codeGroupeCulture": "FOU",
          "nomGroupeCulture": "Fourrages",
          "tauxAdequationBrutPourcent": 157.65,
          "besoinsParCulture": [
            {
              "alimentationAnimale": true,
              "besoinsHa": 53657.65,
              "codeCulture": "BA-AFO",
              "nomCulture": "Fourrages annuels"
            },
            {
              "alimentationAnimale": true,
              "besoinsHa": 691510.14,
              "codeCulture": "BA-PRA",
              "nomCulture": "Prairies"
            }
          ]
        },
        {
          "besoinsHa": 176947.41,
          "codeGroupeCulture": "OLP",
          "nomGroupeCulture": "Oléoprotéagineux",
          "tauxAdequationBrutPourcent": 198.37,
          "besoinsParCulture": [
            {
              "alimentationAnimale": true,
              "besoinsHa": 72779.3,
              "codeCulture": "BA-AAO",
              "nomCulture": "Tourteaux"
            },
            {
              "alimentationAnimale": true,
              "besoinsHa": 5957.75,
              "codeCulture": "BA-PRO",
              "nomCulture": "Légumin graines"
            },
            {
              "alimentationAnimale": false,
              "besoinsHa": 98210.36,
              "codeCulture": "BH-AHO",
              "nomCulture": "Alim humaine"
            }
          ]
        }
      ]
    }
  },
  "profils": {
    "codeProfilAgriculture": "NON_SPECIALISE",
    "codeProfilCollectivite": "REGION",
    "codeProfilDiagnostic": "DEFAUT"
  },
  "proximiteCommerces": {
    "note": 8,
    "partPopulationDependanteVoiturePourcent": 25,
    "partTerritoireDependantVoiturePourcent": 78,
    "indicateursParTypesCommerces": [
      {
        "distancePlusProcheCommerceMetres": 1001.76,
        "partPopulationAccesAPiedPourcent": 74,
        "partPopulationAccesAVeloPourcent": 84,
        "partPopulationDependanteVoiturePourcent": 16,
        "typeCommerce": "BOULANGERIE_PATISSERIE"
      },
      {
        "distancePlusProcheCommerceMetres": 1497.54,
        "partPopulationAccesAPiedPourcent": 61,
        "partPopulationAccesAVeloPourcent": 75,
        "partPopulationDependanteVoiturePourcent": 25,
        "typeCommerce": "BOUCHERIE_POISSONNERIE"
      },
      {
        "distancePlusProcheCommerceMetres": 984.37,
        "partPopulationAccesAPiedPourcent": 74,
        "partPopulationAccesAVeloPourcent": 85,
        "partPopulationDependanteVoiturePourcent": 15,
        "typeCommerce": "COMMERCE_GENERALISTE"
      },
      {
        "distancePlusProcheCommerceMetres": 3377.68,
        "partPopulationAccesAPiedPourcent": 36,
        "partPopulationAccesAVeloPourcent": 54,
        "partPopulationDependanteVoiturePourcent": 46,
        "typeCommerce": "COMMERCE_SPECIALISE"
      },
      {
        "distancePlusProcheCommerceMetres": 1715.34,
        "partPopulationAccesAPiedPourcent": 50,
        "partPopulationAccesAVeloPourcent": 69,
        "partPopulationDependanteVoiturePourcent": 31,
        "typeCommerce": "TOUS_MOYENNE"
      },
      {
        "distancePlusProcheCommerceMetres": 1534.06,
        "partPopulationAccesAPiedPourcent": 60,
        "partPopulationAccesAVeloPourcent": 75,
        "partPopulationDependanteVoiturePourcent": 25,
        "typeCommerce": "TOUS_PLUS_LOIN_3EME_QUARTILE"
      },
      {
        "distancePlusProcheCommerceMetres": 722.19,
        "partPopulationAccesAPiedPourcent": 80,
        "partPopulationAccesAVeloPourcent": 90,
        "partPopulationDependanteVoiturePourcent": 10,
        "typeCommerce": "TOUS_PLUS_PROCHE"
      },
      {
        "distancePlusProcheCommerceMetres": 3534.97,
        "partPopulationAccesAPiedPourcent": 33,
        "partPopulationAccesAVeloPourcent": 51,
        "partPopulationDependanteVoiturePourcent": 49,
        "typeCommerce": "TOUS_PLUS_LOIN"
      }
    ]
  },
  "surfaceAgricoleUtile": {
    "sauBioHa": 500633.34,
    "sauPeuProductiveHa": 1050282,
    "sauProductiveHa": 2568467,
    "sauTotaleHa": 3618750,
    "sauParGroupeCulture": [
      {
        "codeGroupeCulture": "CER",
        "nomGroupeCulture": "Céréales",
        "sauHa": 764399.48,
        "sauParCulture": [
          {
            "codeCulture": "P-ACR",
            "nomCulture": "Autres",
            "sauHa": 106223.86
          },
          {
            "codeCulture": "P-BLD",
            "nomCulture": "Blé dur",
            "sauHa": 141061
          },
          {
            "codeCulture": "P-BLT",
            "nomCulture": "Blé tendre",
            "sauHa": 261454.7
          },
          {
            "codeCulture": "P-MAG",
            "nomCulture": "Maïs grain",
            "sauHa": 149794.89
          },
          {
            "codeCulture": "P-ORG",
            "nomCulture": "Orge",
            "sauHa": 105865.03
          }
        ]
      },
      {
        "codeGroupeCulture": "DVC",
        "nomGroupeCulture": "Autres cultures",
        "sauHa": 227701.62,
        "sauParCulture": [
          {
            "codeCulture": "P-AAC",
            "nomCulture": "Autres",
            "sauHa": 487.36
          },
          {
            "codeCulture": "P-BET",
            "nomCulture": "Betterave sucrière",
            "sauHa": 1367.77
          },
          {
            "codeCulture": "P-OLV",
            "nomCulture": "Oliviers",
            "sauHa": 3413.85
          },
          {
            "codeCulture": "P-PAF",
            "nomCulture": "Plantes à fibres",
            "sauHa": 154.92
          },
          {
            "codeCulture": "P-PAM",
            "nomCulture": "Plantes méd et aro, fleurs",
            "sauHa": 2707.16
          },
          {
            "codeCulture": "P-PDT",
            "nomCulture": "Pommes de terre",
            "sauHa": 997.66
          },
          {
            "codeCulture": "P-TAB",
            "nomCulture": "Tabac",
            "sauHa": 473.47
          },
          {
            "codeCulture": "P-VIT",
            "nomCulture": "Vignes",
            "sauHa": 218099.43
          }
        ]
      },
      {
        "codeGroupeCulture": "FLC",
        "nomGroupeCulture": "Fruits et légumes",
        "sauHa": 50609.46,
        "sauParCulture": [
          {
            "codeCulture": "P-FCO",
            "nomCulture": "Fruits à coque",
            "sauHa": 6917.03
          },
          {
            "codeCulture": "P-FRU",
            "nomCulture": "Fruits",
            "sauHa": 31091.24
          },
          {
            "codeCulture": "P-LEG",
            "nomCulture": "Légumes",
            "sauHa": 12601.19
          }
        ]
      },
      {
        "codeGroupeCulture": "FOU",
        "nomGroupeCulture": "Fourrages",
        "sauHa": 1174738.12,
        "sauParCulture": [
          {
            "codeCulture": "P-FOA",
            "nomCulture": "Autres fourr annuels",
            "sauHa": 10047.96
          },
          {
            "codeCulture": "P-FOP",
            "nomCulture": "Autres prairies",
            "sauHa": 321670.71
          },
          {
            "codeCulture": "P-LGF",
            "nomCulture": "Légumin fourrage",
            "sauHa": 174259.26
          },
          {
            "codeCulture": "P-MAF",
            "nomCulture": "Maïs fourrage",
            "sauHa": 34415.63
          },
          {
            "codeCulture": "P-PRA",
            "nomCulture": "Prairies permanentes",
            "sauHa": 634344.56
          }
        ]
      },
      {
        "codeGroupeCulture": "OLP",
        "nomGroupeCulture": "Oléoprotéagineux",
        "sauHa": 351018.79,
        "sauParCulture": [
          {
            "codeCulture": "P-AOP",
            "nomCulture": "Autres",
            "sauHa": 56106.89
          },
          {
            "codeCulture": "P-CLZ",
            "nomCulture": "Colza",
            "sauHa": 40338.12
          },
          {
            "codeCulture": "P-LGG",
            "nomCulture": "Légumin graines",
            "sauHa": 48245.42
          },
          {
            "codeCulture": "P-TRN",
            "nomCulture": "Tournesol",
            "sauHa": 206328.36
          }
        ]
      },
      {
        "codeGroupeCulture": "SNC",
        "nomGroupeCulture": "Surfaces non cultivées",
        "sauHa": 1050282.35,
        "sauParCulture": [
          {
            "codeCulture": "P-ANC",
            "nomCulture": "Autres",
            "sauHa": 968179.18
          },
          {
            "codeCulture": "P-JAC",
            "nomCulture": "Jachères",
            "sauHa": 82103.17
          }
        ]
      }
    ]
  }
}