{
    "type": "FeatureCollection",
    "name": "hotels_de_prefectures_FR",
    "crs": { "type": "name", "properties": { "name": "urn:ogc:def:crs:OGC:1.3:CRS84" } },
    "features": [
    { "type": "Feature", "properties": { "DeptNum": "2A", "Nom": "Palais Lantivy", "Commune": "Ajaccio", "DeptNom": "Corse-du-Sud", "LatDD": 41.919722222222219, "LonDD": 8.7361111111111107 }, "geometry": { "type": "Point", "coordinates": [ 8.736111111111111, 41.919722222222219 ] } },
    { "type": "Feature", "properties": { "DeptNum": "13", "Nom": "Hôtel de préfecture", "Commune": "Marseille", "DeptNom": "Bouches-du-Rhône", "LatDD": 43.290277777777774, "LonDD": 5.38 }, "geometry": { "type": "Point", "coordinates": [ 5.38, 43.290277777777774 ] } },
    { "type": "Feature", "properties": { "DeptNum": "14", "Nom": "Hôtel de préfecture", "Commune": "Caen", "DeptNom": "Calvados", "LatDD": 49.18, "LonDD": -0.36527777777777798 }, "geometry": { "type": "Point", "coordinates": [ -0.365277777777778, 49.18 ] } },
    { "type": "Feature", "properties": { "DeptNum": "25", "Nom": "Hôtel de préfecture", "Commune": "Besançon", "DeptNom": "Doubs", "LatDD": 47.233611111111109, "LonDD": 6.020833333333333 }, "geometry": { "type": "Point", "coordinates": [ 6.020833333333333, 47.233611111111109 ] } },
    { "type": "Feature", "properties": { "DeptNum": "31", "Nom": "Hôtel de préfecture", "Commune": "Toulouse", "DeptNom": "Haute-Garonne", "LatDD": 43.598611111111111, "LonDD": 1.450277777777778 }, "geometry": { "type": "Point", "coordinates": [ 1.450277777777778, 43.598611111111111 ] } },
    { "type": "Feature", "properties": { "DeptNum": "33", "Nom": "Hôtel de préfecture", "Commune": "Bordeaux", "DeptNom": "Gironde", "LatDD": 44.8375, "LonDD": -0.586666666666667 }, "geometry": { "type": "Point", "coordinates": [ -0.586666666666667, 44.8375 ] } },
    { "type": "Feature", "properties": { "DeptNum": "35", "Nom": "Hôtel de préfecture", "Commune": "Rennes", "DeptNom": "Ille-et-Vilaine", "LatDD": 48.113611111111112, "LonDD": -1.6744444444444451 }, "geometry": { "type": "Point", "coordinates": [ -1.674444444444445, 48.113611111111112 ] } },
    { "type": "Feature", "properties": { "DeptNum": "44", "Nom": "Hôtel de préfecture", "Commune": "Nantes", "DeptNom": "Loire-Atlantique", "LatDD": 47.220555555555556, "LonDD": -1.553055555555555 }, "geometry": { "type": "Point", "coordinates": [ -1.553055555555555, 47.220555555555556 ] } },
    { "type": "Feature", "properties": { "DeptNum": "45", "Nom": "Hôtel de préfecture", "Commune": "Orléans", "DeptNom": "Loiret", "LatDD": 47.900277777777781, "LonDD": 1.910555555555556 }, "geometry": { "type": "Point", "coordinates": [ 1.910555555555556, 47.900277777777781 ] } },
    { "type": "Feature", "properties": { "DeptNum": "59", "Nom": "Hôtel de préfecture", "Commune": "Lille", "DeptNom": "Nord", "LatDD": 50.632222222222225, "LonDD": 3.0597222222222218 }, "geometry": { "type": "Point", "coordinates": [ 3.059722222222222, 50.632222222222225 ] } },
    { "type": "Feature", "properties": { "DeptNum": "67", "Nom": "Hôtel de préfecture", "Commune": "Strasbourg", "DeptNom": "Bas-Rhin", "LatDD": 48.588333333333331, "LonDD": 7.755 }, "geometry": { "type": "Point", "coordinates": [ 7.755, 48.588333333333331 ] } },
    { "type": "Feature", "properties": { "DeptNum": "69", "Nom": "Hôtel de préfecture", "Commune": "Lyon", "DeptNom": "Rhône", "LatDD": 45.760833333333331, "LonDD": 4.8433333333333337 }, "geometry": { "type": "Point", "coordinates": [ 4.843333333333334, 45.760833333333331 ] } },
    { "type": "Feature", "properties": { "DeptNum": "75", "Nom": "Hôtel de préfecture", "Commune": "Paris", "DeptNom": "Paris", "LatDD": 48.856296190448617, "LonDD": 2.3532802187024688 }, "geometry": { "type": "Point", "coordinates": [ 2.353280218702469, 48.856296190448617 ] } }
    ]
    }
    